10:03:51: OptimizeTest: Start Running...
10:04:04: Warning: not enough quota!
10:04:07: Warning: not enough quota!
10:04:10: Warning: not enough quota!
10:04:12: Warning: not enough quota!
10:04:14: Warning: not enough quota!
10:04:15: Warning: not enough quota!
10:04:17: Warning: not enough quota!
