10:35:40: Choice: (7,1: ARTILLERY)->(7,4: NOTHING) by Bot player is a valid move.
10:35:40: ------------------------
CHJEGEJHC
.........
.A.....A.
S.S.S.S.S
.........
.........
s.s.s.s.s
....a..a.
.........
chjegejhc

10:35:40: ------------------------
10:35:43: Comp: Used 2749 millisecond.
10:35:43: Choice: (2, 1: ARTILLERY)-> (6,1: NOTHING)
10:35:43: Expectation: [Empt]. (111, 111).
10:35:43: ------------------------
CHJEGEJHC
.........
.A.....A.
S.S.S.S.S
.........
.........
s.s.s.s.s
....a..a.
.........
chjegejhc

10:35:43: ------------------------
10:35:43: Choice: (2,1: ARTILLERY)->(6,1: NOTHING) by Top player is a valid move.
10:35:43: ------------------------
CHJEGEJHC
.........
.......A.
S.S.S.S.S
.........
.........
sAs.s.s.s
....a..a.
.........
chjegejhc

10:35:43: ------------------------
10:35:46: Choice: (7,4: ARTILLERY)->(3,4: SOLDIER) by Bot player is a valid move.
10:35:46: ------------------------
CHJEGEJHC
.........
.......A.
S.S.a.S.S
.........
.........
sAs.s.s.s
.......a.
.........
chjegejhc

10:35:46: ------------------------
10:35:49: Comp: Used 2882 millisecond.
10:35:49: Choice: (0, 7: HORSE)-> (2,6: NOTHING)
10:35:49: Expectation: [Empt]. (110, 109).
10:35:49: ------------------------
CHJEGEJHC
.........
.......A.
S.S.a.S.S
.........
.........
sAs.s.s.s
.......a.
.........
chjegejhc

10:35:49: ------------------------
10:35:49: Choice: (0,7: HORSE)->(2,6: NOTHING) by Top player is a valid move.
10:35:49: ------------------------
CHJEGEJ.C
.........
......HA.
S.S.a.S.S
.........
.........
sAs.s.s.s
.......a.
.........
chjegejhc

10:35:49: ------------------------
10:35:51: Choice: (3,4: ARTILLERY)->(5,4: NOTHING) by Bot player is a valid move.
10:35:51: ------------------------
CHJEGEJ.C
.........
......HA.
S.S...S.S
.........
....a....
sAs.s.s.s
.......a.
.........
chjegejhc

10:35:51: ------------------------
10:35:54: Comp: Used 2671 millisecond.
10:35:54: Choice: (2, 7: ARTILLERY)-> (9,7: HORSE)
10:35:54: Expectation: [Empt]. (106, 105).
10:35:54: ------------------------
CHJEGEJ.C
.........
......HA.
S.S...S.S
.........
....a....
sAs.s.s.s
.......a.
.........
chjegejhc

10:35:54: ------------------------
10:35:54: Choice: (2,7: ARTILLERY)->(9,7: HORSE) by Top player is a valid move.
10:35:54: ------------------------
CHJEGEJ.C
.........
......H..
S.S...S.S
.........
....a....
sAs.s.s.s
.......a.
.........
chjegejAc

10:35:54: ------------------------
10:35:58: Choice: (9,1: HORSE)->(7,2: NOTHING) by Bot player is a valid move.
10:35:58: ------------------------
CHJEGEJ.C
.........
......H..
S.S...S.S
.........
....a....
sAs.s.s.s
..h....a.
.........
c.jegejAc

10:35:58: ------------------------
10:36:01: Comp: Used 2347 millisecond.
10:36:01: Choice: (0, 8: CHARIOT)-> (0,7: NOTHING)
10:36:01: Expectation: [Empt]. (109, 106).
10:36:01: ------------------------
CHJEGEJ.C
.........
......H..
S.S...S.S
.........
....a....
sAs.s.s.s
..h....a.
.........
c.jegejAc

10:36:01: ------------------------
10:36:01: Choice: (0,8: CHARIOT)->(0,7: NOTHING) by Top player is a valid move.
10:36:01: ------------------------
CHJEGEJC.
.........
......H..
S.S...S.S
.........
....a....
sAs.s.s.s
..h....a.
.........
c.jegejAc

10:36:01: ------------------------
10:36:04: Choice: (9,8: CHARIOT)->(9,7: ARTILLERY) by Bot player is a valid move.
10:36:04: ------------------------
CHJEGEJC.
.........
......H..
S.S...S.S
.........
....a....
sAs.s.s.s
..h....a.
.........
c.jegejc.

10:36:04: ------------------------
10:36:06: Comp: Used 2213 millisecond.
10:36:06: Choice: (6, 1: ARTILLERY)-> (7,1: NOTHING)
10:36:06: Expectation: [Empt]. (102, 100).
10:36:06: ------------------------
CHJEGEJC.
.........
......H..
S.S...S.S
.........
....a....
sAs.s.s.s
..h....a.
.........
c.jegejc.

10:36:06: ------------------------
10:36:06: Choice: (6,1: ARTILLERY)->(7,1: NOTHING) by Top player is a valid move.
10:36:06: ------------------------
CHJEGEJC.
.........
......H..
S.S...S.S
.........
....a....
s.s.s.s.s
.Ah....a.
.........
c.jegejc.

10:36:06: ------------------------
10:36:11: Choice: (7,7: ARTILLERY)->(7,1: ARTILLERY) by Bot player is a valid move.
10:36:11: ------------------------
CHJEGEJC.
.........
......H..
S.S...S.S
.........
....a....
s.s.s.s.s
.ah......
.........
c.jegejc.

10:36:11: ------------------------
10:36:12: Comp: Used 1439 millisecond.
10:36:12: Choice: (0, 7: CHARIOT)-> (9,7: CHARIOT)
10:36:12: Expectation: [Empt]. (102, 102).
10:36:12: ------------------------
CHJEGEJC.
.........
......H..
S.S...S.S
.........
....a....
s.s.s.s.s
.ah......
.........
c.jegejc.

10:36:12: ------------------------
10:36:13: Choice: (0,7: CHARIOT)->(9,7: CHARIOT) by Top player is a valid move.
10:36:13: ------------------------
CHJEGEJ..
.........
......H..
S.S...S.S
.........
....a....
s.s.s.s.s
.ah......
.........
c.jegejC.

10:36:13: ------------------------
10:36:21: Choice: (7,2: HORSE)->(7,2: HORSE) by Bot player is an invalid move.
10:36:21: ------------------------
CHJEGEJ..
.........
......H..
S.S...S.S
.........
....a....
s.s.s.s.s
.ah......
.........
c.jegejC.

10:36:21: ------------------------
10:36:24: Choice: (5,4: ARTILLERY)->(5,6: NOTHING) by Bot player is a valid move.
10:36:24: ------------------------
CHJEGEJ..
.........
......H..
S.S...S.S
.........
......a..
s.s.s.s.s
.ah......
.........
c.jegejC.

10:36:24: ------------------------
10:36:25: Comp: Used 717 millisecond.
10:36:25: Choice: (0, 0: CHARIOT)-> (1,0: NOTHING)
10:36:25: Expectation: [Empt]. (100, 102).
10:36:25: ------------------------
CHJEGEJ..
.........
......H..
S.S...S.S
.........
......a..
s.s.s.s.s
.ah......
.........
c.jegejC.

10:36:25: ------------------------
10:36:25: Choice: (0,0: CHARIOT)->(1,0: NOTHING) by Top player is a valid move.
10:36:25: ------------------------
.HJEGEJ..
C........
......H..
S.S...S.S
.........
......a..
s.s.s.s.s
.ah......
.........
c.jegejC.

10:36:25: ------------------------
10:36:30: Choice: (5,6: ARTILLERY)->(2,6: HORSE) by Bot player is a valid move.
10:36:30: ------------------------
.HJEGEJ..
C........
......a..
S.S...S.S
.........
.........
s.s.s.s.s
.ah......
.........
c.jegejC.

10:36:30: ------------------------
10:36:30: Comp: Used 555 millisecond.
10:36:30: Choice: (9, 7: CHARIOT)-> (9,6: JUMBO)
10:36:30: Expectation: [Empt]. (97, 100).
10:36:30: ------------------------
.HJEGEJ..
C........
......a..
S.S...S.S
.........
.........
s.s.s.s.s
.ah......
.........
c.jegejC.

10:36:30: ------------------------
10:36:31: Choice: (9,7: CHARIOT)->(9,6: JUMBO) by Top player is a valid move.
10:36:31: ------------------------
.HJEGEJ..
C........
......a..
S.S...S.S
.........
.........
s.s.s.s.s
.ah......
.........
c.jegeC..

10:36:31: ------------------------
10:36:38: Choice: (2,6: ARTILLERY)->(2,4: NOTHING) by Bot player is a valid move.
10:36:38: ------------------------
.HJEGEJ..
C........
....a....
S.S...S.S
.........
.........
s.s.s.s.s
.ah......
.........
c.jegeC..

10:36:38: ------------------------
10:36:38: Comp: Used 399 millisecond.
10:36:38: Choice: (0, 2: JUMBO)-> (2,4: ARTILLERY)
10:36:38: Expectation: [Empt]. (97, 95).
10:36:38: ------------------------
.HJEGEJ..
C........
....a....
S.S...S.S
.........
.........
s.s.s.s.s
.ah......
.........
c.jegeC..

10:36:38: ------------------------
10:36:39: Choice: (0,2: JUMBO)->(2,4: ARTILLERY) by Top player is a valid move.
10:36:39: ------------------------
.H.EGEJ..
C........
....J....
S.S...S.S
.........
.........
s.s.s.s.s
.ah......
.........
c.jegeC..

10:36:39: ------------------------
10:36:44: Choice: (7,1: ARTILLERY)->(5,1: NOTHING) by Bot player is a valid move.
10:36:44: ------------------------
.HJEGEJ..
C........
......a..
S.S...S.S
.........
.a.......
s.s.s.s.s
..h......
.........
c.jegeC..

10:36:44: ------------------------
10:36:45: Comp: Used 463 millisecond.
10:36:45: Choice: (1, 0: CHARIOT)-> (2,0: NOTHING)
10:36:45: Expectation: [Empt]. (98, 100).
10:36:45: ------------------------
.HJEGEJ..
C........
......a..
S.S...S.S
.........
.a.......
s.s.s.s.s
..h......
.........
c.jegeC..

10:36:45: ------------------------
10:36:45: Choice: (1,0: CHARIOT)->(2,0: NOTHING) by Top player is a valid move.
10:36:45: ------------------------
.HJEGEJ..
.........
C.....a..
S.S...S.S
.........
.a.......
s.s.s.s.s
..h......
.........
c.jegeC..

10:36:45: ------------------------
10:36:49: Choice: (5,1: ARTILLERY)->(5,1: ARTILLERY) by Bot player is an invalid move.
10:36:49: ------------------------
.HJEGEJ..
.........
C.....a..
S.S...S.S
.........
.a.......
s.s.s.s.s
..h......
.........
c.jegeC..

10:36:49: ------------------------
10:36:52: Choice: (2,6: ARTILLERY)->(1,6: NOTHING) by Bot player is a valid move.
10:36:52: ------------------------
.HJEGEJ..
......a..
C........
S.S...S.S
.........
.a.......
s.s.s.s.s
..h......
.........
c.jegeC..

10:36:52: ------------------------
10:36:53: Comp: Used 510 millisecond.
10:36:53: Choice: (2, 0: CHARIOT)-> (1,0: NOTHING)
10:36:53: Expectation: [Empt]. (98, 100).
10:36:53: ------------------------
.HJEGEJ..
......a..
C........
S.S...S.S
.........
.a.......
s.s.s.s.s
..h......
.........
c.jegeC..

10:36:53: ------------------------
10:36:53: Choice: (2,0: CHARIOT)->(1,0: NOTHING) by Top player is a valid move.
10:36:53: ------------------------
.HJEGEJ..
C.....a..
.........
S.S...S.S
.........
.a.......
s.s.s.s.s
..h......
.........
c.jegeC..

10:36:53: ------------------------
10:37:02: Choice: (1,6: ARTILLERY)->(2,6: NOTHING) by Bot player is a valid move.
10:37:02: ------------------------
.HJEGEJ..
C........
......a..
S.S...S.S
.........
.a.......
s.s.s.s.s
..h......
.........
c.jegeC..

10:37:02: ------------------------
10:37:02: Comp: Used 458 millisecond.
10:37:02: Choice: (1, 0: CHARIOT)-> (2,0: NOTHING)
10:37:02: Expectation: [Empt]. (98, 100).
10:37:02: ------------------------
.HJEGEJ..
C........
......a..
S.S...S.S
.........
.a.......
s.s.s.s.s
..h......
.........
c.jegeC..

10:37:02: ------------------------
10:37:02: Choice: (1,0: CHARIOT)->(2,0: NOTHING) by Top player is a valid move.
10:37:02: ------------------------
.HJEGEJ..
.........
C.....a..
S.S...S.S
.........
.a.......
s.s.s.s.s
..h......
.........
c.jegeC..

10:37:02: ------------------------
10:37:04: Choice: (2,6: ARTILLERY)->(1,6: NOTHING) by Bot player is a valid move.
10:37:04: ------------------------
.HJEGEJ..
......a..
C........
S.S...S.S
.........
.a.......
s.s.s.s.s
..h......
.........
c.jegeC..

10:37:04: ------------------------
10:37:04: Comp: Used 565 millisecond.
10:37:04: Choice: (2, 0: CHARIOT)-> (1,0: NOTHING)
10:37:04: Expectation: [Empt]. (98, 100).
10:37:04: ------------------------
.HJEGEJ..
......a..
C........
S.S...S.S
.........
.a.......
s.s.s.s.s
..h......
.........
c.jegeC..

10:37:04: ------------------------
10:37:04: Choice: (2,0: CHARIOT)->(1,0: NOTHING) by Top player is a valid move.
10:37:04: ------------------------
.HJEGEJ..
C.....a..
.........
S.S...S.S
.........
.a.......
s.s.s.s.s
..h......
.........
c.jegeC..

10:37:04: ------------------------
10:37:07: Choice: (1,6: ARTILLERY)->(2,6: NOTHING) by Bot player is a valid move.
10:37:07: ------------------------
.HJEGEJ..
C........
......a..
S.S...S.S
.........
.a.......
s.s.s.s.s
..h......
.........
c.jegeC..

10:37:07: ------------------------
10:37:07: Comp: Used 493 millisecond.
10:37:07: Choice: (1, 0: CHARIOT)-> (2,0: NOTHING)
10:37:07: Expectation: [Empt]. (98, 100).
10:37:07: ------------------------
.HJEGEJ..
C........
......a..
S.S...S.S
.........
.a.......
s.s.s.s.s
..h......
.........
c.jegeC..

10:37:07: ------------------------
10:37:07: Choice: (1,0: CHARIOT)->(2,0: NOTHING) by Top player is a valid move.
10:37:07: ------------------------
.HJEGEJ..
.........
C.....a..
S.S...S.S
.........
.a.......
s.s.s.s.s
..h......
.........
c.jegeC..

10:37:07: ------------------------
10:37:10: Choice: (2,6: ARTILLERY)->(2,6: ARTILLERY) by Bot player is an invalid move.
10:37:10: ------------------------
.HJEGEJ..
.........
C.....a..
S.S...S.S
.........
.a.......
s.s.s.s.s
..h......
.........
c.jegeC..

10:37:10: ------------------------
10:37:31: Choice: (2,6: ARTILLERY)->(2,7: NOTHING) by Bot player is a valid move.
10:37:31: ------------------------
.HJEGEJ..
C........
.......a.
S.S...S.S
.........
.........
s.s.s.s.s
.ah......
.........
c.jegeC..

10:37:31: ------------------------
10:37:32: Comp: Used 544 millisecond.
10:37:32: Choice: (1, 0: CHARIOT)-> (1,7: NOTHING)
10:37:32: Expectation: [Empt]. (98, 100).
10:37:32: ------------------------
.HJEGEJ..
C........
.......a.
S.S...S.S
.........
.........
s.s.s.s.s
.ah......
.........
c.jegeC..

10:37:32: ------------------------
10:37:32: Choice: (1,0: CHARIOT)->(1,7: NOTHING) by Top player is a valid move.
10:37:32: ------------------------
.HJEGEJ..
.......C.
.......a.
S.S...S.S
.........
.........
s.s.s.s.s
.ah......
.........
c.jegeC..

10:37:32: ------------------------
10:37:41: Choice: (2,7: ARTILLERY)->(2,1: NOTHING) by Bot player is a valid move.
10:37:41: ------------------------
.HJEGEJ..
.......C.
.a.......
S.S...S.S
.........
.........
s.s.s.s.s
.ah......
.........
c.jegeC..

10:37:41: ------------------------
10:37:41: Comp: Used 516 millisecond.
10:37:41: Choice: (0, 1: HORSE)-> (2,0: NOTHING)
10:37:41: Expectation: [Empt]. (98, 100).
10:37:41: ------------------------
.HJEGEJ..
.......C.
.a.......
S.S...S.S
.........
.........
s.s.s.s.s
.ah......
.........
c.jegeC..

10:37:41: ------------------------
10:37:42: Choice: (0,1: HORSE)->(2,0: NOTHING) by Top player is a valid move.
10:37:42: ------------------------
..JEGEJ..
.......C.
Ha.......
S.S...S.S
.........
.........
s.s.s.s.s
.ah......
.........
c.jegeC..

10:37:42: ------------------------
10:37:45: Choice: (2,1: ARTILLERY)->(5,1: NOTHING) by Bot player is a valid move.
10:37:45: ------------------------
..JEGEJ..
.......C.
H........
S.S...S.S
.........
.a.......
s.s.s.s.s
.ah......
.........
c.jegeC..

10:37:45: ------------------------
10:37:45: Comp: Used 513 millisecond.
10:37:45: Choice: (9, 6: CHARIOT)-> (6,6: SOLDIER)
10:37:45: Expectation: [Empt]. (98, 99).
10:37:45: ------------------------
..JEGEJ..
.......C.
H........
S.S...S.S
.........
.a.......
s.s.s.s.s
.ah......
.........
c.jegeC..

10:37:45: ------------------------
10:37:46: Choice: (9,6: CHARIOT)->(6,6: SOLDIER) by Top player is a valid move.
10:37:46: ------------------------
..JEGEJ..
.......C.
H........
S.S...S.S
.........
.a.......
s.s.s.C.s
.ah......
.........
c.jege...

10:37:46: ------------------------
10:37:49: Choice: (5,1: ARTILLERY)->(5,4: NOTHING) by Bot player is a valid move.
10:37:49: ------------------------
..JEGEJ..
.......C.
H........
S.S...S.S
.........
....a....
s.s.s.C.s
.ah......
.........
c.jege...

10:37:49: ------------------------
10:37:50: Comp: Used 524 millisecond.
10:37:50: Choice: (0, 4: GENERAL)-> (1,4: NOTHING)
10:37:50: Expectation: [Empt]. (98, 99).
10:37:50: ------------------------
..JEGEJ..
.......C.
H........
S.S...S.S
.........
....a....
s.s.s.C.s
.ah......
.........
c.jege...

10:37:50: ------------------------
10:37:50: Choice: (0,4: GENERAL)->(1,4: NOTHING) by Top player is a valid move.
10:37:50: ------------------------
..JE.EJ..
....G..C.
H........
S.S...S.S
.........
....a....
s.s.s.C.s
.ah......
.........
c.jege...

10:37:50: ------------------------
10:37:53: Choice: (7,1: ARTILLERY)->(4,1: NOTHING) by Bot player is a valid move.
10:37:53: ------------------------
..JE.EJ..
....G..C.
H........
S.S...S.S
.a.......
....a....
s.s.s.C.s
..h......
.........
c.jege...

10:37:53: ------------------------
10:37:53: Comp: Used 507 millisecond.
10:37:53: Choice: (1, 7: CHARIOT)-> (1,5: NOTHING)
10:37:53: Expectation: [Empt]. (98, 99).
10:37:53: ------------------------
..JE.EJ..
....G..C.
H........
S.S...S.S
.a.......
....a....
s.s.s.C.s
..h......
.........
c.jege...

10:37:53: ------------------------
10:37:54: Choice: (1,7: CHARIOT)->(1,5: NOTHING) by Top player is a valid move.
10:37:54: ------------------------
..JE.EJ..
....GC...
H........
S.S...S.S
.a.......
....a....
s.s.s.C.s
..h......
.........
c.jege...

10:37:54: ------------------------
10:37:57: Choice: (4,1: ARTILLERY)->(4,4: NOTHING) by Bot player is a valid move.
10:37:57: ------------------------
..JE.EJ..
....GC...
H........
S.S...S.S
....a....
....a....
s.s.s.C.s
..h......
.........
c.jege...

10:37:57: ------------------------
10:37:58: Comp: Used 530 millisecond.
10:37:58: Choice: (1, 4: GENERAL)-> (1,3: NOTHING)
10:37:58: Expectation: [Empt]. (96, 98).
10:37:58: ------------------------
..JE.EJ..
....GC...
H........
S.S...S.S
....a....
....a....
s.s.s.C.s
..h......
.........
c.jege...

10:37:58: ------------------------
10:37:58: Choice: (1,4: GENERAL)->(1,3: NOTHING) by Top player is a valid move.
10:37:58: ------------------------
..JE.EJ..
...G.C...
H........
S.S...S.S
....a....
....a....
s.s.s.C.s
..h......
.........
c.jege...

10:37:58: ------------------------
10:38:06: Choice: (4,4: ARTILLERY)->(4,1: NOTHING) by Bot player is a valid move.
10:38:06: ------------------------
..JE.EJ..
...G.C...
H........
S.S...S.S
.a.......
....a....
s.s.s.C.s
..h......
.........
c.jege...

10:38:06: ------------------------
10:38:07: Comp: Used 733 millisecond.
10:38:07: Choice: (1, 3: GENERAL)-> (1,4: NOTHING)
10:38:07: Expectation: [Empt]. (98, 99).
10:38:07: ------------------------
..JE.EJ..
...G.C...
H........
S.S...S.S
.a.......
....a....
s.s.s.C.s
..h......
.........
c.jege...

10:38:07: ------------------------
10:38:07: Choice: (1,3: GENERAL)->(1,4: NOTHING) by Top player is a valid move.
10:38:07: ------------------------
..JE.EJ..
....GC...
H........
S.S...S.S
.a.......
....a....
s.s.s.C.s
..h......
.........
c.jege...

10:38:07: ------------------------
10:38:09: Choice: (4,1: ARTILLERY)->(0,1: NOTHING) by Bot player is a valid move.
10:38:09: ------------------------
.aJE.EJ..
....GC...
H........
S.S...S.S
.........
....a....
s.s.s.C.s
..h......
.........
c.jege...

10:38:09: ------------------------
10:38:10: Comp: Used 619 millisecond.
10:38:10: Choice: (2, 0: HORSE)-> (0,1: ARTILLERY)
10:38:10: Expectation: [Empt]. (98, 95).
10:38:10: ------------------------
.aJE.EJ..
....GC...
H........
S.S...S.S
.........
....a....
s.s.s.C.s
..h......
.........
c.jege...

10:38:10: ------------------------
10:38:10: Choice: (2,0: HORSE)->(0,1: ARTILLERY) by Top player is a valid move.
10:38:10: ------------------------
.HJE.EJ..
....GC...
.........
S.S...S.S
.........
....a....
s.s.s.C.s
..h......
.........
c.jege...

10:38:10: ------------------------
