11:42:22: Choice: (7,1: ARTILLERY)->(7,4: NOTHING) by Bot player is a valid move.
11:42:22: ------------------------
CHJEGEJHC
.........
.A.....A.
S.S.S.S.S
.........
.........
s.s.s.s.s
....a..a.
.........
chjegejhc

11:42:22: ------------------------
11:42:22: ------------------------
CHJEGEJHC
.........
....A..A.
S.S.S.S.S
.........
.........
s.s.s.s.s
....a..ac
.........
chjegejh.

11:42:22: ------------------------
