11:48:51: Choice: (7,1: ARTILLERY)->(7,4: NOTHING) by Bot player is a valid move.
11:48:51: ------------------------
CHJEGEJHC
.........
.A.....A.
S.S.S.S.S
.........
.........
s.s.s.s.s
....a..a.
.........
chjegejhc

11:48:51: ------------------------
11:48:52: Exit because of limit..
11:48:52: Exit because of limit..
11:48:52: Exit because of limit..
11:48:52: Exit because of limit..
11:48:52: Exit because of limit..
11:48:52: Exit because of limit..
11:48:52: Exit because of limit..
11:48:52: Exit because of limit..
11:48:52: Exit because of limit..
11:48:52: Exit because of limit..
11:48:52: Exit because of limit..
11:48:52: Exit because of limit..
11:48:52: Exit because of limit..
11:48:52: Exit because of limit..
11:48:52: Exit because of limit..
11:48:52: Exit because of limit..
11:48:52: Exit because of limit..
11:48:52: Exit because of limit..
11:48:52: Exit because of limit..
11:48:52: Exit because of limit..
11:48:52: Exit because of limit..
11:48:52: Exit because of limit..
11:48:52: Exit because of limit..
11:48:52: Exit because of limit..
11:48:53: Exit because of limit..
11:48:53: Exit because of limit..
11:48:53: Exit because of limit..
11:48:53: Exit because of limit..
11:48:53: Exit because of limit..
11:48:53: Exit because of limit..
11:48:53: Exit because of limit..
11:48:53: Exit because of limit..
11:48:53: Exit because of limit..
11:48:53: Exit because of limit..
11:48:53: Exit because of limit..
11:48:53: Exit because of limit..
11:48:53: Exit because of limit..
11:48:53: Exit because of limit..
11:48:53: Exit because of limit..
11:48:53: Exit because of limit..
11:48:53: Exit because of limit..
11:48:53: Exit because of limit..
11:48:53: Exit because of limit..
11:48:53: Exit because of limit..
11:48:53: Exit because of limit..
11:48:53: Exit because of limit..
11:48:53: Exit because of limit..
11:48:53: Exit because of limit..
11:48:53: Exit because of limit..
11:48:53: Exit because of limit..
11:48:53: Exit because of limit..
11:48:53: Exit because of limit..
11:48:53: Exit because of limit..
11:48:53: Exit because of limit..
11:48:53: Exit because of limit..
11:48:53: Exit because of limit..
11:48:53: Exit because of limit..
11:48:53: Exit because of limit..
11:48:53: Exit because of limit..
11:48:53: Exit because of limit..
11:48:53: Exit because of limit..
11:48:53: Exit because of limit..
11:48:53: Exit because of limit..
11:48:53: Exit because of limit..
11:48:53: Exit because of limit..
11:48:53: Exit because of limit..
11:48:53: Exit because of limit..
11:48:53: Exit because of limit..
11:48:53: Exit because of limit..
11:48:53: Exit because of limit..
11:48:53: Exit because of limit..
11:48:53: Exit because of limit..
11:48:53: Exit because of limit..
11:48:53: Exit because of limit..
11:48:53: Exit because of limit..
11:48:53: Exit because of limit..
11:48:53: Exit because of limit..
11:48:53: Exit because of limit..
11:48:53: Exit because of limit..
11:48:53: Exit because of limit..
11:48:53: Exit because of limit..
11:48:53: Exit because of limit..
11:48:53: Exit because of limit..
11:48:53: Exit because of limit..
11:48:53: Exit because of limit..
11:48:53: Exit because of limit..
11:48:53: Exit because of limit..
11:48:53: Exit because of limit..
11:48:53: Exit because of limit..
11:48:53: Exit because of limit..
11:48:53: Exit because of limit..
11:48:53: Exit because of limit..
11:48:53: Exit because of limit..
11:48:53: Exit because of limit..
11:48:53: Exit because of limit..
11:48:53: Exit because of limit..
11:48:53: Exit because of limit..
11:48:53: Exit because of limit..
11:48:53: Exit because of limit..
11:48:53: Exit because of limit..
11:48:53: Exit because of limit..
11:48:53: Exit because of limit..
11:48:53: Exit because of limit..
11:48:53: Exit because of limit..
11:48:53: Exit because of limit..
11:48:53: Exit because of limit..
11:48:53: Exit because of limit..
11:48:53: Exit because of limit..
11:48:53: Exit because of limit..
11:48:53: Exit because of limit..
11:48:54: Exit because of limit..
11:48:54: Exit because of limit..
11:48:54: Exit because of limit..
11:48:54: Exit because of limit..
11:48:54: Exit because of limit..
11:48:54: Exit because of limit..
11:48:54: Exit because of limit..
11:48:54: Exit because of limit..
11:48:54: Exit because of limit..
11:48:54: Exit because of limit..
11:48:54: Exit because of limit..
11:48:54: Exit because of limit..
11:48:54: Exit because of limit..
11:48:54: Exit because of limit..
11:48:54: Exit because of limit..
11:48:54: Exit because of limit..
11:48:54: Exit because of limit..
11:48:54: Exit because of limit..
11:48:54: Exit because of limit..
11:48:54: Exit because of limit..
11:48:54: Exit because of limit..
11:48:54: Exit because of limit..
11:48:54: Exit because of limit..
11:48:54: Exit because of limit..
11:48:54: Exit because of limit..
11:48:54: Exit because of limit..
11:48:54: Exit because of limit..
11:48:54: Exit because of limit..
11:48:54: Exit because of limit..
11:48:54: Exit because of limit..
11:48:54: Exit because of limit..
11:48:55: Exit because of limit..
11:48:56: Exit because of limit..
11:48:56: Exit because of limit..
11:48:56: Exit because of limit..
11:48:56: Exit because of limit..
11:48:56: Exit because of limit..
11:48:56: Exit because of limit..
11:48:56: Exit because of limit..
11:48:56: Exit because of limit..
11:48:56: Exit because of limit..
11:48:56: Exit because of limit..
11:48:56: Exit because of limit..
11:48:56: Exit because of limit..
11:48:56: Exit because of limit..
11:48:56: Exit because of limit..
11:48:56: Exit because of limit..
11:48:56: Exit because of limit..
11:48:56: Exit because of limit..
11:48:56: Exit because of limit..
11:48:56: Exit because of limit..
11:48:56: Exit because of limit..
11:48:56: Exit because of limit..
11:48:56: Exit because of limit..
11:48:56: Exit because of limit..
11:48:56: Exit because of limit..
11:48:56: Exit because of limit..
11:48:56: Exit because of limit..
11:48:56: Exit because of limit..
11:48:56: Exit because of limit..
11:48:57: Exit because of limit..
11:48:57: Exit because of limit..
11:48:57: Exit because of limit..
11:48:57: Exit because of limit..
11:48:57: Exit because of limit..
11:48:57: Exit because of limit..
