12:00:47: Choice: (7,1: ARTILLERY)->(7,4: NOTHING) by Bot player is a valid move.
12:00:47: ------------------------
CHJEGEJHC
.........
.A.....A.
S.S.S.S.S
.........
.........
s.s.s.s.s
....a..a.
.........
chjegejhc

12:00:47: ------------------------
12:01:02: Comp: Used 14409 millisecond.
12:01:02: Choice: (2, 7: ARTILLERY)-> (2,4: NOTHING)
12:01:02: Expectation: [Empt]. (111, 110).
12:01:02: ------------------------
CHJEGEJHC
.........
.A.....A.
S.S.S.S.S
.........
.........
s.s.s.s.s
....a..a.
.........
chjegejhc

12:01:02: ------------------------
12:01:02: Choice: (2,7: ARTILLERY)->(2,4: NOTHING) by Top player is a valid move.
12:01:02: ------------------------
CHJEGEJHC
.........
.A..A....
S.S.S.S.S
.........
.........
s.s.s.s.s
....a..a.
.........
chjegejhc

12:01:02: ------------------------
12:01:07: Choice: (7,4: ARTILLERY)->(3,4: SOLDIER) by Bot player is a valid move.
12:01:07: ------------------------
CHJEGEJHC
.........
.A..A....
S.S.a.S.S
.........
.........
s.s.s.s.s
.......a.
.........
chjegejhc

12:01:07: ------------------------
12:01:11: Comp: Used 3155 millisecond.
12:01:11: Choice: (0, 5: ESCORT)-> (1,4: NOTHING)
12:01:11: Expectation: [Empt]. (110, 110).
12:01:11: ------------------------
CHJEGEJHC
.........
.A..A....
S.S.a.S.S
.........
.........
s.s.s.s.s
.......a.
.........
chjegejhc

12:01:11: ------------------------
12:01:11: Choice: (0,5: ESCORT)->(1,4: NOTHING) by Top player is a valid move.
12:01:11: ------------------------
CHJEG.JHC
....E....
.A..A....
S.S.a.S.S
.........
.........
s.s.s.s.s
.......a.
.........
chjegejhc

12:01:11: ------------------------
12:01:16: Choice: (9,1: HORSE)->(7,2: NOTHING) by Bot player is a valid move.
12:01:16: ------------------------
CHJEG.JHC
....E....
.A..A....
S.S.a.S.S
.........
.........
s.s.s.s.s
..h....a.
.........
c.jegejhc

12:01:16: ------------------------
12:01:22: Comp: Used 6109 millisecond.
12:01:22: Choice: (2, 1: ARTILLERY)-> (2,2: NOTHING)
12:01:22: Expectation: [Empt]. (110, 109).
12:01:22: ------------------------
CHJEG.JHC
....E....
.A..A....
S.S.a.S.S
.........
.........
s.s.s.s.s
..h....a.
.........
c.jegejhc

12:01:22: ------------------------
12:01:22: Choice: (2,1: ARTILLERY)->(2,2: NOTHING) by Top player is a valid move.
12:01:22: ------------------------
CHJEG.JHC
....E....
..A.A....
S.S.a.S.S
.........
.........
s.s.s.s.s
..h....a.
.........
c.jegejhc

12:01:22: ------------------------
12:01:52: Choice: (7,7: ARTILLERY)->(7,7: ARTILLERY) by Bot player is an invalid move.
12:01:52: ------------------------
CHJEG.JHC
....E....
..A.A....
S.S.a.S.S
.........
.........
s.s.s.s.s
..h....a.
.........
c.jegejhc

12:01:52: ------------------------
12:01:57: Choice: (6,2: SOLDIER)->(5,2: NOTHING) by Bot player is a valid move.
12:01:57: ------------------------
CHJEG.JHC
....E....
..A.A....
S.S.a.S.S
.........
..s......
s...s.s.s
..h....a.
.........
c.jegejhc

12:01:57: ------------------------
12:02:02: Comp: Used 4580 millisecond.
12:02:02: Choice: (3, 2: SOLDIER)-> (4,2: NOTHING)
12:02:02: Expectation: [Empt]. (110, 109).
12:02:02: ------------------------
CHJEG.JHC
....E....
..A.A....
S.S.a.S.S
.........
..s......
s...s.s.s
..h....a.
.........
c.jegejhc

12:02:02: ------------------------
12:02:02: Choice: (3,2: SOLDIER)->(4,2: NOTHING) by Top player is a valid move.
12:02:02: ------------------------
CHJEG.JHC
....E....
..A.A....
S...a.S.S
..S......
..s......
s...s.s.s
..h....a.
.........
c.jegejhc

12:02:02: ------------------------
12:02:04: Choice: (7,2: HORSE)->(5,3: NOTHING) by Bot player is a valid move.
12:02:04: ------------------------
CHJEG.JHC
....E....
..A.A....
S...a.S.S
..S......
..sh.....
s...s.s.s
.......a.
.........
c.jegejhc

12:02:04: ------------------------
12:02:10: Comp: Used 5442 millisecond.
12:02:10: Choice: (2, 2: ARTILLERY)-> (1,2: NOTHING)
12:02:10: Expectation: [Empt]. (110, 110).
12:02:10: ------------------------
CHJEG.JHC
....E....
..A.A....
S...a.S.S
..S......
..sh.....
s...s.s.s
.......a.
.........
c.jegejhc

12:02:10: ------------------------
12:02:10: Choice: (2,2: ARTILLERY)->(1,2: NOTHING) by Top player is a valid move.
12:02:10: ------------------------
CHJEG.JHC
..A.E....
....A....
S...a.S.S
..S......
..sh.....
s...s.s.s
.......a.
.........
c.jegejhc

12:02:10: ------------------------
12:02:16: Choice: (5,3: HORSE)->(3,2: NOTHING) by Bot player is a valid move.
12:02:16: ------------------------
CHJEG.JHC
..A.E....
....A....
S.h.a.S.S
..S......
..s......
s...s.s.s
.......a.
.........
c.jegejhc

12:02:16: ------------------------
12:02:21: Comp: Used 4867 millisecond.
12:02:21: Choice: (4, 2: SOLDIER)-> (5,2: SOLDIER)
12:02:21: Expectation: [Empt]. (109, 109).
12:02:21: ------------------------
CHJEG.JHC
..A.E....
....A....
S.h.a.S.S
..S......
..s......
s...s.s.s
.......a.
.........
c.jegejhc

12:02:21: ------------------------
12:02:21: Choice: (4,2: SOLDIER)->(5,2: SOLDIER) by Top player is a valid move.
12:02:21: ------------------------
CHJEG.JHC
..A.E....
....A....
S.h.a.S.S
.........
..S......
s...s.s.s
.......a.
.........
c.jegejhc

12:02:21: ------------------------
12:02:26: Choice: (9,0: CHARIOT)->(9,1: NOTHING) by Bot player is a valid move.
12:02:26: ------------------------
CHJEG.JHC
..A.E....
....A....
S.h.a.S.S
.........
..S......
s...s.s.s
.......a.
.........
.cjegejhc

12:02:26: ------------------------
12:02:33: Comp: Used 6337 millisecond.
12:02:33: Choice: (0, 8: CHARIOT)-> (1,8: NOTHING)
12:02:33: Expectation: [Empt]. (110, 110).
12:02:33: ------------------------
CHJEG.JHC
..A.E....
....A....
S.h.a.S.S
.........
..S......
s...s.s.s
.......a.
.........
.cjegejhc

12:02:33: ------------------------
12:02:33: Choice: (0,8: CHARIOT)->(1,8: NOTHING) by Top player is a valid move.
12:02:33: ------------------------
CHJEG.JH.
..A.E...C
....A....
S.h.a.S.S
.........
..S......
s...s.s.s
.......a.
.........
.cjegejhc

12:02:33: ------------------------
12:02:41: Choice: (7,7: ARTILLERY)->(7,7: ARTILLERY) by Bot player is an invalid move.
12:02:41: ------------------------
CHJEG.JH.
..A.E...C
....A....
S.h.a.S.S
.........
..S......
s...s.s.s
.......a.
.........
.cjegejhc

12:02:41: ------------------------
12:02:45: Choice: (9,1: CHARIOT)->(1,1: NOTHING) by Bot player is a valid move.
12:02:45: ------------------------
CHJEG.JH.
.cA.E...C
....A....
S.h.a.S.S
.........
..S......
s...s.s.s
.......a.
.........
..jegejhc

12:02:45: ------------------------
12:02:53: Comp: Used 5799 millisecond.
12:02:53: Choice: (1, 2: ARTILLERY)-> (2,2: NOTHING)
12:02:53: Expectation: [Empt]. (110, 110).
12:02:53: ------------------------
CHJEG.JH.
.cA.E...C
....A....
S.h.a.S.S
.........
..S......
s...s.s.s
.......a.
.........
..jegejhc

12:02:53: ------------------------
12:02:53: Choice: (1,2: ARTILLERY)->(2,2: NOTHING) by Top player is a valid move.
12:02:53: ------------------------
CHJEG.JH.
.c..E...C
..A.A....
S.h.a.S.S
.........
..S......
s...s.s.s
.......a.
.........
..jegejhc

12:02:53: ------------------------
12:03:02: Choice: (7,7: ARTILLERY)->(7,5: NOTHING) by Bot player is a valid move.
12:03:02: ------------------------
CHJEG.JH.
.c..E...C
..A.A....
S.h.a.S.S
.........
..S......
s...s.s.s
.....a...
.........
..jegejhc

12:03:02: ------------------------
12:03:09: Comp: Used 6721 millisecond.
12:03:09: Choice: (1, 8: CHARIOT)-> (1,7: NOTHING)
12:03:09: Expectation: [Empt]. (110, 110).
12:03:09: ------------------------
CHJEG.JH.
.c..E...C
..A.A....
S.h.a.S.S
.........
..S......
s...s.s.s
.....a...
.........
..jegejhc

12:03:09: ------------------------
12:03:09: Choice: (1,8: CHARIOT)->(1,7: NOTHING) by Top player is a valid move.
12:03:09: ------------------------
CHJEG.JH.
.c..E..C.
..A.A....
S.h.a.S.S
.........
..S......
s...s.s.s
.....a...
.........
..jegejhc

12:03:09: ------------------------
12:03:12: Choice: (9,7: HORSE)->(7,6: NOTHING) by Bot player is a valid move.
12:03:12: ------------------------
CHJEG.JH.
.c..E..C.
..A.A....
S.h.a.S.S
.........
..S......
s...s.s.s
.....ah..
.........
..jegej.c

12:03:12: ------------------------
12:03:20: Comp: Used 7729 millisecond.
12:03:20: Choice: (3, 8: SOLDIER)-> (4,8: NOTHING)
12:03:20: Expectation: [Empt]. (110, 110).
12:03:20: ------------------------
CHJEG.JH.
.c..E..C.
..A.A....
S.h.a.S.S
.........
..S......
s...s.s.s
.....ah..
.........
..jegej.c

12:03:20: ------------------------
12:03:20: Choice: (3,8: SOLDIER)->(4,8: NOTHING) by Top player is a valid move.
12:03:20: ------------------------
CHJEG.JH.
.c..E..C.
..A.A....
S.h.a.S..
........S
..S......
s...s.s.s
.....ah..
.........
..jegej.c

12:03:20: ------------------------
12:03:24: Choice: (9,8: CHARIOT)->(7,8: NOTHING) by Bot player is a valid move.
12:03:24: ------------------------
CHJEG.JH.
.c..E..C.
..A.A....
S.h.a.S..
........S
..S......
s...s.s.s
.....ah.c
.........
..jegej..

12:03:24: ------------------------
12:03:33: Comp: Used 7994 millisecond.
12:03:33: Choice: (1, 7: CHARIOT)-> (1,8: NOTHING)
12:03:33: Expectation: [Empt]. (110, 110).
12:03:33: ------------------------
CHJEG.JH.
.c..E..C.
..A.A....
S.h.a.S..
........S
..S......
s...s.s.s
.....ah.c
.........
..jegej..

12:03:33: ------------------------
12:03:33: Choice: (1,7: CHARIOT)->(1,8: NOTHING) by Top player is a valid move.
12:03:33: ------------------------
CHJEG.JH.
.c..E...C
..A.A....
S.h.a.S..
........S
..S......
s...s.s.s
.....ah.c
.........
..jegej..

12:03:33: ------------------------
12:03:35: Choice: (6,6: SOLDIER)->(5,6: NOTHING) by Bot player is a valid move.
12:03:35: ------------------------
CHJEG.JH.
.c..E...C
..A.A....
S.h.a.S..
........S
..S...s..
s...s...s
.....ah.c
.........
..jegej..

12:03:35: ------------------------
12:03:43: Comp: Used 7061 millisecond.
12:03:43: Choice: (0, 7: HORSE)-> (2,8: NOTHING)
12:03:43: Expectation: [Empt]. (110, 110).
12:03:43: ------------------------
CHJEG.JH.
.c..E...C
..A.A....
S.h.a.S..
........S
..S...s..
s...s...s
.....ah.c
.........
..jegej..

12:03:43: ------------------------
12:03:43: Choice: (0,7: HORSE)->(2,8: NOTHING) by Top player is a valid move.
12:03:43: ------------------------
CHJEG.J..
.c..E...C
..A.A...H
S.h.a.S..
........S
..S...s..
s...s...s
.....ah.c
.........
..jegej..

12:03:43: ------------------------
12:03:53: Choice: (7,6: HORSE)->(5,7: NOTHING) by Bot player is a valid move.
12:03:53: ------------------------
CHJEG.J..
.c..E...C
..A.A...H
S.h.a.S..
........S
..S...sh.
s...s...s
.....a..c
.........
..jegej..

12:03:53: ------------------------
12:04:00: Comp: Used 5642 millisecond.
12:04:00: Choice: (2, 8: HORSE)-> (4,7: NOTHING)
12:04:00: Expectation: [Empt]. (110, 110).
12:04:00: ------------------------
CHJEG.J..
.c..E...C
..A.A...H
S.h.a.S..
........S
..S...sh.
s...s...s
.....a..c
.........
..jegej..

12:04:00: ------------------------
12:04:00: Choice: (2,8: HORSE)->(4,7: NOTHING) by Top player is a valid move.
12:04:00: ------------------------
CHJEG.J..
.c..E...C
..A.A....
S.h.a.S..
.......HS
..S...sh.
s...s...s
.....a..c
.........
..jegej..

12:04:00: ------------------------
12:04:05: Choice: (6,8: SOLDIER)->(6,8: SOLDIER) by Bot player is an invalid move.
12:04:05: ------------------------
CHJEG.J..
.c..E...C
..A.A....
S.h.a.S..
.......HS
..S...sh.
s...s...s
.....a..c
.........
..jegej..

12:04:05: ------------------------
12:04:11: Choice: (5,6: SOLDIER)->(4,6: NOTHING) by Bot player is a valid move.
12:04:11: ------------------------
CHJEG.J..
.c..E...C
..A.A....
S.h.a.S..
......sHS
..S....h.
s...s...s
.....a..c
.........
..jegej..

12:04:11: ------------------------
12:04:18: Comp: Used 6688 millisecond.
12:04:18: Choice: (3, 6: SOLDIER)-> (4,6: SOLDIER)
12:04:18: Expectation: [Empt]. (110, 109).
12:04:18: ------------------------
CHJEG.J..
.c..E...C
..A.A....
S.h.a.S..
......sHS
..S....h.
s...s...s
.....a..c
.........
..jegej..

12:04:18: ------------------------
12:04:18: Choice: (3,6: SOLDIER)->(4,6: SOLDIER) by Top player is a valid move.
12:04:18: ------------------------
CHJEG.J..
.c..E...C
..A.A....
S.h.a....
......SHS
..S....h.
s...s...s
.....a..c
.........
..jegej..

12:04:18: ------------------------
12:04:28: Choice: (6,4: SOLDIER)->(5,4: NOTHING) by Bot player is a valid move.
12:04:28: ------------------------
CHJEG.J..
.c..E...C
..A.A....
S.h.a.S..
.......HS
..S.s.sh.
s.......s
.....a..c
.........
..jegej..

12:04:28: ------------------------
12:04:36: Comp: Used 7330 millisecond.
12:04:36: Choice: (1, 8: CHARIOT)-> (1,7: NOTHING)
12:04:36: Expectation: [Empt]. (110, 110).
12:04:36: ------------------------
CHJEG.J..
.c..E...C
..A.A....
S.h.a.S..
.......HS
..S.s.sh.
s.......s
.....a..c
.........
..jegej..

12:04:36: ------------------------
12:04:36: Choice: (1,8: CHARIOT)->(1,7: NOTHING) by Top player is a valid move.
12:04:36: ------------------------
CHJEG.J..
.c..E..C.
..A.A....
S.h.a.S..
.......HS
..S.s.sh.
s.......s
.....a..c
.........
..jegej..

12:04:36: ------------------------
12:04:49: Choice: (7,8: CHARIOT)->(7,7: NOTHING) by Bot player is a valid move.
12:04:49: ------------------------
CHJEG.J..
.c..E..C.
..A.A....
S.h.a.S..
.......HS
..S.s.sh.
s.......s
.....a.c.
.........
..jegej..

12:04:49: ------------------------
12:04:56: Comp: Used 7124 millisecond.
12:04:56: Choice: (4, 7: HORSE)-> (2,6: NOTHING)
12:04:56: Expectation: [Empt]. (110, 110).
12:04:56: ------------------------
CHJEG.J..
.c..E..C.
..A.A....
S.h.a.S..
.......HS
..S.s.sh.
s.......s
.....a.c.
.........
..jegej..

12:04:56: ------------------------
12:04:56: Choice: (4,7: HORSE)->(2,6: NOTHING) by Top player is a valid move.
12:04:56: ------------------------
CHJEG.J..
.c..E..C.
..A.A.H..
S.h.a.S..
........S
..S.s.sh.
s.......s
.....a.c.
.........
..jegej..

12:04:56: ------------------------
12:05:09: Choice: (7,5: ARTILLERY)->(7,6: NOTHING) by Bot player is a valid move.
12:05:09: ------------------------
CHJEG.J..
.c..E..C.
..A.A....
S.h.a.S..
.......HS
..S.s.sh.
s.......s
......a.c
.........
..jegej..

12:05:09: ------------------------
12:05:16: Comp: Used 7164 millisecond.
12:05:16: Choice: (1, 7: CHARIOT)-> (3,7: NOTHING)
12:05:16: Expectation: [Empt]. (110, 110).
12:05:16: ------------------------
CHJEG.J..
.c..E..C.
..A.A....
S.h.a.S..
.......HS
..S.s.sh.
s.......s
......a.c
.........
..jegej..

12:05:16: ------------------------
12:05:16: Choice: (1,7: CHARIOT)->(3,7: NOTHING) by Top player is a valid move.
12:05:16: ------------------------
CHJEG.J..
.c..E....
..A.A....
S.h.a.SC.
.......HS
..S.s.sh.
s.......s
......a.c
.........
..jegej..

12:05:16: ------------------------
12:05:22: Choice: (3,4: ARTILLERY)->(3,4: ARTILLERY) by Bot player is an invalid move.
12:05:22: ------------------------
CHJEG.J..
.c..E....
..A.A....
S.h.a.SC.
.......HS
..S.s.sh.
s.......s
......a.c
.........
..jegej..

12:05:22: ------------------------
12:05:30: Choice: (5,4: SOLDIER)->(5,4: SOLDIER) by Bot player is an invalid move.
12:05:30: ------------------------
CHJEG.J..
.c..E....
..A.A....
S.h.a.SC.
.......HS
..S.s.sh.
s.......s
......a.c
.........
..jegej..

12:05:30: ------------------------
12:05:32: Choice: (9,3: ESCORT)->(8,4: NOTHING) by Bot player is a valid move.
12:05:32: ------------------------
CHJEG.J..
.c..E....
..A.A....
S.h.a.SC.
.......HS
..S.s.sh.
s.......s
......a.c
....e....
..j.gej..

12:05:32: ------------------------
12:05:38: Comp: Used 6153 millisecond.
12:05:38: Choice: (3, 6: SOLDIER)-> (4,6: NOTHING)
12:05:38: Expectation: [Empt]. (110, 110).
12:05:38: ------------------------
CHJEG.J..
.c..E....
..A.A....
S.h.a.SC.
.......HS
..S.s.sh.
s.......s
......a.c
....e....
..j.gej..

12:05:38: ------------------------
12:05:38: Choice: (3,6: SOLDIER)->(4,6: NOTHING) by Top player is a valid move.
12:05:38: ------------------------
CHJEG.J..
.c..E....
..A.A....
S.h.a..C.
......SHS
..S.s.sh.
s.......s
......a.c
....e....
..j.gej..

12:05:38: ------------------------
12:05:46: Choice: (3,2: HORSE)->(3,2: HORSE) by Bot player is an invalid move.
12:05:46: ------------------------
CHJEG.J..
.c..E....
..A.A....
S.h.a..C.
......SHS
..S.s.sh.
s.......s
......a.c
....e....
..j.gej..

12:05:46: ------------------------
12:05:49: Choice: (3,4: ARTILLERY)->(3,4: ARTILLERY) by Bot player is an invalid move.
12:05:49: ------------------------
CHJEG.J..
.c..E....
..A.A....
S.h.a..C.
......SHS
..S.s.sh.
s.......s
......a.c
....e....
..j.gej..

12:05:49: ------------------------
12:05:51: Choice: (7,6: ARTILLERY)->(7,4: NOTHING) by Bot player is a valid move.
12:05:51: ------------------------
CHJEG.J..
.c..E....
..A.A....
S.h.a..C.
......SHS
..S.s.sh.
s.......s
....a...c
....e....
..j.gej..

12:05:51: ------------------------
12:05:58: Comp: Used 6354 millisecond.
12:05:58: Choice: (4, 6: SOLDIER)-> (5,6: SOLDIER)
12:05:58: Expectation: [Empt]. (110, 109).
12:05:58: ------------------------
CHJEG.J..
.c..E....
..A.A....
S.h.a..C.
......SHS
..S.s.sh.
s.......s
....a...c
....e....
..j.gej..

12:05:58: ------------------------
12:05:58: Choice: (4,6: SOLDIER)->(5,6: SOLDIER) by Top player is a valid move.
12:05:58: ------------------------
CHJEG.J..
.c..E....
..A.A....
S.h.a..C.
.......HS
..S.s.Sh.
s.......s
....a...c
....e....
..j.gej..

12:05:58: ------------------------
12:06:03: Choice: (5,7: HORSE)->(7,6: NOTHING) by Bot player is a valid move.
12:06:03: ------------------------
CHJEG.J..
.c..E....
..A.A....
S.h.a..C.
.......HS
..S.s.S..
s.......s
....a.h.c
....e....
..j.gej..

12:06:03: ------------------------
12:06:13: Comp: Used 9731 millisecond.
12:06:13: Choice: (5, 6: SOLDIER)-> (5,5: NOTHING)
12:06:13: Expectation: [Empt]. (110, 109).
12:06:13: ------------------------
CHJEG.J..
.c..E....
..A.A....
S.h.a..C.
.......HS
..S.s.S..
s.......s
....a.h.c
....e....
..j.gej..

12:06:13: ------------------------
12:06:13: Choice: (5,6: SOLDIER)->(5,5: NOTHING) by Top player is a valid move.
12:06:13: ------------------------
CHJEG.J..
.c..E....
..A.A....
S.h.a..C.
.......HS
..S.sS...
s.......s
....a.h.c
....e....
..j.gej..

12:06:13: ------------------------
12:06:16: Choice: (5,4: SOLDIER)->(4,4: NOTHING) by Bot player is a valid move.
12:06:16: ------------------------
CHJEG.J..
.c..E....
..A.A....
S.h.a..C.
....s..HS
..S..S...
s.......s
....a.h.c
....e....
..j.gej..

12:06:16: ------------------------
12:06:25: Comp: Used 9114 millisecond.
12:06:25: Choice: (3, 7: CHARIOT)-> (3,5: NOTHING)
12:06:25: Expectation: [Empt]. (110, 109).
12:06:25: ------------------------
CHJEG.J..
.c..E....
..A.A....
S.h.a..C.
....s..HS
..S..S...
s.......s
....a.h.c
....e....
..j.gej..

12:06:25: ------------------------
12:06:25: Choice: (3,7: CHARIOT)->(3,5: NOTHING) by Top player is a valid move.
12:06:25: ------------------------
CHJEG.J..
.c..E....
..A.A....
S.h.aC...
....s..HS
..S..S...
s.......s
....a.h.c
....e....
..j.gej..

12:06:25: ------------------------
12:06:41: Choice: (7,6: HORSE)->(7,6: HORSE) by Bot player is an invalid move.
12:06:41: ------------------------
CHJEG.J..
.c..E....
..A.A....
S.h.aC...
....s..HS
..S..S...
s.......s
....a.h.c
....e....
..j.gej..

12:06:41: ------------------------
12:06:43: Choice: (7,8: CHARIOT)->(7,7: NOTHING) by Bot player is a valid move.
12:06:43: ------------------------
CHJEG.J..
.c..E....
..A.A....
S.h.aC...
....s..HS
..S..S...
s.......s
....a.hc.
....e....
..j.gej..

12:06:43: ------------------------
12:06:52: Comp: Used 9184 millisecond.
12:06:52: Choice: (4, 7: HORSE)-> (6,8: SOLDIER)
12:06:52: Expectation: [Empt]. (110, 108).
12:06:52: ------------------------
CHJEG.J..
.c..E....
..A.A....
S.h.aC...
....s..HS
..S..S...
s.......s
....a.hc.
....e....
..j.gej..

12:06:52: ------------------------
12:06:52: Choice: (4,7: HORSE)->(6,8: SOLDIER) by Top player is a valid move.
12:06:52: ------------------------
CHJEG.J..
.c..E....
..A.A....
S.h.aC...
....s...S
..S..S...
s.......H
....a.hc.
....e....
..j.gej..

12:06:52: ------------------------
12:06:57: Choice: (7,6: HORSE)->(5,7: NOTHING) by Bot player is a valid move.
12:06:57: ------------------------
CHJEG.J..
.c..E....
..A.A....
S.h.aC...
....s...S
..S..S.h.
s.......H
....a..c.
....e....
..j.gej..

12:06:57: ------------------------
12:07:07: Comp: Used 9191 millisecond.
12:07:07: Choice: (3, 5: CHARIOT)-> (3,7: NOTHING)
12:07:07: Expectation: [Empt]. (110, 108).
12:07:07: ------------------------
CHJEG.J..
.c..E....
..A.A....
S.h.aC...
....s...S
..S..S.h.
s.......H
....a..c.
....e....
..j.gej..

12:07:07: ------------------------
12:07:07: Choice: (3,5: CHARIOT)->(3,7: NOTHING) by Top player is a valid move.
12:07:07: ------------------------
CHJEG.J..
.c..E....
..A.A....
S.h.a..C.
....s...S
..S..S.h.
s.......H
....a..c.
....e....
..j.gej..

12:07:07: ------------------------
12:07:11: Choice: (7,7: CHARIOT)->(6,7: NOTHING) by Bot player is a valid move.
12:07:11: ------------------------
CHJEG.J..
.c..E....
..A.A....
S.h.a..C.
....s...S
..S..S.h.
s......cH
....a....
....e....
..j.gej..

12:07:11: ------------------------
12:07:21: Comp: Used 9230 millisecond.
12:07:21: Choice: (2, 2: ARTILLERY)-> (2,0: NOTHING)
12:07:21: Expectation: [Empt]. (110, 108).
12:07:21: ------------------------
CHJEG.J..
.c..E....
..A.A....
S.h.a..C.
....s...S
..S..S.h.
s......cH
....a....
....e....
..j.gej..

12:07:21: ------------------------
12:07:21: Choice: (2,2: ARTILLERY)->(2,0: NOTHING) by Top player is a valid move.
12:07:21: ------------------------
CHJEG.J..
.c..E....
A...A....
S.h.a..C.
....s...S
..S..S.h.
s......cH
....a....
....e....
..j.gej..

12:07:21: ------------------------
12:07:29: Choice: (3,2: HORSE)->(3,2: HORSE) by Bot player is an invalid move.
12:07:29: ------------------------
CHJEG.J..
.c..E....
A...A....
S.h.a..C.
....s...S
..S..S.h.
s......cH
....a....
....e....
..j.gej..

12:07:29: ------------------------
12:07:37: Choice: (3,2: HORSE)->(5,1: NOTHING) by Bot player is a valid move.
12:07:37: ------------------------
CHJEG.J..
.c..E....
A...A....
S...a..C.
....s...S
.hS..S.h.
s......cH
....a....
....e....
..j.gej..

12:07:37: ------------------------
12:07:47: Comp: Used 8837 millisecond.
12:07:47: Choice: (5, 2: SOLDIER)-> (5,1: HORSE)
12:07:47: Expectation: [Empt]. (110, 104).
12:07:47: ------------------------
CHJEG.J..
.c..E....
A...A....
S...a..C.
....s...S
.hS..S.h.
s......cH
....a....
....e....
..j.gej..

12:07:47: ------------------------
12:07:47: Choice: (5,2: SOLDIER)->(5,1: HORSE) by Top player is a valid move.
12:07:47: ------------------------
CHJEG.J..
.c..E....
A...A....
S...a..C.
....s...S
.S...S.h.
s......cH
....a....
....e....
..j.gej..

12:07:47: ------------------------
