12:08:42: Choice: (7,1: ARTILLERY)->(7,4: NOTHING) by Bot player is a valid move.
12:08:42: ------------------------
CHJEGEJHC
.........
.A.....A.
S.S.S.S.S
.........
.........
s.s.s.s.s
....a..a.
.........
chjegejhc

12:08:42: ------------------------
12:08:48: Comp: Used 5234 millisecond.
12:08:48: Choice: (2, 7: ARTILLERY)-> (2,6: NOTHING)
12:08:48: Expectation: [Empt]. (111, 111).
12:08:48: ------------------------
CHJEGEJHC
.........
.A.....A.
S.S.S.S.S
.........
.........
s.s.s.s.s
....a..a.
.........
chjegejhc

12:08:48: ------------------------
12:08:48: Choice: (2,7: ARTILLERY)->(2,6: NOTHING) by Top player is a valid move.
12:08:48: ------------------------
CHJEGEJHC
.........
.A....A..
S.S.S.S.S
.........
.........
s.s.s.s.s
....a..a.
.........
chjegejhc

12:08:48: ------------------------
12:08:52: Choice: (7,4: ARTILLERY)->(3,4: SOLDIER) by Bot player is a valid move.
12:08:52: ------------------------
CHJEGEJHC
.........
.A....A..
S.S.a.S.S
.........
.........
s.s.s.s.s
.......a.
.........
chjegejhc

12:08:52: ------------------------
12:08:58: Comp: Used 4932 millisecond.
12:08:58: Choice: (2, 1: ARTILLERY)-> (4,1: NOTHING)
12:08:58: Expectation: [Empt]. (110, 109).
12:08:58: ------------------------
CHJEGEJHC
.........
.A....A..
S.S.a.S.S
.........
.........
s.s.s.s.s
.......a.
.........
chjegejhc

12:08:58: ------------------------
12:08:58: Choice: (2,1: ARTILLERY)->(4,1: NOTHING) by Top player is a valid move.
12:08:58: ------------------------
CHJEGEJHC
.........
......A..
S.S.a.S.S
.A.......
.........
s.s.s.s.s
.......a.
.........
chjegejhc

12:08:58: ------------------------
12:09:04: Choice: (7,7: ARTILLERY)->(5,7: NOTHING) by Bot player is a valid move.
12:09:04: ------------------------
CHJEGEJHC
.........
......A..
S.S.a.S.S
.A.......
.......a.
s.s.s.s.s
.........
.........
chjegejhc

12:09:04: ------------------------
12:09:10: Comp: Used 5186 millisecond.
12:09:10: Choice: (4, 1: ARTILLERY)-> (4,4: NOTHING)
12:09:10: Expectation: [Empt]. (110, 109).
12:09:10: ------------------------
CHJEGEJHC
.........
......A..
S.S.a.S.S
.A.......
.......a.
s.s.s.s.s
.........
.........
chjegejhc

12:09:10: ------------------------
12:09:10: Choice: (4,1: ARTILLERY)->(4,4: NOTHING) by Top player is a valid move.
12:09:10: ------------------------
CHJEGEJHC
.........
......A..
S.S.a.S.S
....A....
.......a.
s.s.s.s.s
.........
.........
chjegejhc

12:09:10: ------------------------
12:09:13: Choice: (5,7: ARTILLERY)->(5,4: NOTHING) by Bot player is a valid move.
12:09:13: ------------------------
CHJEGEJHC
.........
......A..
S.S.a.S.S
....A....
....a....
s.s.s.s.s
.........
.........
chjegejhc

12:09:13: ------------------------
12:09:15: Comp: Used 952 millisecond.
12:09:15: Choice: (0, 1: HORSE)-> (2,2: NOTHING)
12:09:15: Expectation: [Empt]. (110, 109).
12:09:15: ------------------------
CHJEGEJHC
.........
......A..
S.S.a.S.S
....A....
....a....
s.s.s.s.s
.........
.........
chjegejhc

12:09:15: ------------------------
12:09:15: Choice: (0,1: HORSE)->(2,2: NOTHING) by Top player is a valid move.
12:09:15: ------------------------
C.JEGEJHC
.........
..H...A..
S.S.a.S.S
....A....
....a....
s.s.s.s.s
.........
.........
chjegejhc

12:09:15: ------------------------
12:09:24: Choice: (3,4: ARTILLERY)->(3,5: NOTHING) by Bot player is a valid move.
12:09:24: ------------------------
C.JEGEJHC
.........
..H...A..
S.S..aS.S
....A....
....a....
s.s.s.s.s
.........
.........
chjegejhc

12:09:24: ------------------------
12:09:26: Comp: Used 1797 millisecond.
12:09:26: Choice: (2, 6: ARTILLERY)-> (2,4: NOTHING)
12:09:26: Expectation: [Empt]. (106, 105).
12:09:26: ------------------------
C.JEGEJHC
.........
..H...A..
S.S..aS.S
....A....
....a....
s.s.s.s.s
.........
.........
chjegejhc

12:09:26: ------------------------
12:09:26: Choice: (2,6: ARTILLERY)->(2,4: NOTHING) by Top player is a valid move.
12:09:26: ------------------------
C.JEGEJHC
.........
..H.A....
S.S..aS.S
....A....
....a....
s.s.s.s.s
.........
.........
chjegejhc

12:09:26: ------------------------
12:09:37: Choice: (9,1: HORSE)->(7,2: NOTHING) by Bot player is a valid move.
12:09:37: ------------------------
C.JEGEJHC
.........
..H.A....
S.S..aS.S
....A....
....a....
s.s.s.s.s
..h......
.........
c.jegejhc

12:09:37: ------------------------
12:09:38: Comp: Used 1122 millisecond.
12:09:38: Choice: (2, 4: ARTILLERY)-> (5,4: ARTILLERY)
12:09:38: Expectation: [Empt]. (110, 105).
12:09:38: ------------------------
C.JEGEJHC
.........
..H.A....
S.S..aS.S
....A....
....a....
s.s.s.s.s
..h......
.........
c.jegejhc

12:09:38: ------------------------
12:09:38: Choice: (2,4: ARTILLERY)->(5,4: ARTILLERY) by Top player is a valid move.
12:09:38: ------------------------
C.JEGEJHC
.........
..H......
S.S..aS.S
....A....
....A....
s.s.s.s.s
..h......
.........
c.jegejhc

12:09:38: ------------------------
12:09:51: Choice: (9,2: JUMBO)->(7,4: NOTHING) by Bot player is a valid move.
12:09:51: ------------------------
C.JEGEJHC
.........
..H.A....
S.S..aS.S
....A....
....a....
s.s.s.s.s
....j....
.........
ch.egejhc

12:09:51: ------------------------
12:09:54: Comp: Used 1980 millisecond.
12:09:54: Choice: (2, 4: ARTILLERY)-> (5,4: ARTILLERY)
12:09:54: Expectation: [Empt]. (106, 103).
12:09:54: ------------------------
C.JEGEJHC
.........
..H.A....
S.S..aS.S
....A....
....a....
s.s.s.s.s
....j....
.........
ch.egejhc

12:09:54: ------------------------
12:09:54: Choice: (2,4: ARTILLERY)->(5,4: ARTILLERY) by Top player is a valid move.
12:09:54: ------------------------
C.JEGEJHC
.........
..H......
S.S..aS.S
....A....
....A....
s.s.s.s.s
....j....
.........
ch.egejhc

12:09:54: ------------------------
12:09:58: Choice: (6,4: SOLDIER)->(5,4: ARTILLERY) by Bot player is a valid move.
12:09:58: ------------------------
C.JEGEJHC
.........
..H......
S.S..aS.S
....A....
....s....
s.s...s.s
....j....
.........
ch.egejhc

12:09:58: ------------------------
12:10:01: Comp: Used 2719 millisecond.
12:10:01: Choice: (4, 4: ARTILLERY)-> (4,8: NOTHING)
12:10:01: Expectation: [Empt]. (106, 103).
12:10:01: ------------------------
C.JEGEJHC
.........
..H......
S.S..aS.S
....A....
....s....
s.s...s.s
....j....
.........
ch.egejhc

12:10:01: ------------------------
12:10:01: Choice: (4,4: ARTILLERY)->(4,8: NOTHING) by Top player is a valid move.
12:10:01: ------------------------
C.JEGEJHC
.........
..H......
S.S..aS.S
........A
....s....
s.s...s.s
....j....
.........
ch.egejhc

12:10:01: ------------------------
12:10:06: Choice: (9,7: HORSE)->(7,8: NOTHING) by Bot player is a valid move.
12:10:06: ------------------------
C.JEGEJHC
.........
..H......
S.S..aS.S
........A
....s....
s.s...s.s
....j...h
.........
ch.egej.c

12:10:06: ------------------------
12:10:09: Comp: Used 2546 millisecond.
12:10:09: Choice: (4, 8: ARTILLERY)-> (4,0: NOTHING)
12:10:09: Expectation: [Empt]. (105, 103).
12:10:09: ------------------------
C.JEGEJHC
.........
..H......
S.S..aS.S
........A
....s....
s.s...s.s
....j...h
.........
ch.egej.c

12:10:09: ------------------------
12:10:09: Choice: (4,8: ARTILLERY)->(4,0: NOTHING) by Top player is a valid move.
12:10:09: ------------------------
C.JEGEJHC
.........
..H......
S.S..aS.S
A........
....s....
s.s...s.s
....j...h
.........
ch.egej.c

12:10:09: ------------------------
12:10:15: Choice: (9,1: HORSE)->(7,0: NOTHING) by Bot player is a valid move.
12:10:15: ------------------------
C.JEGEJHC
.........
..H......
S.S..aS.S
A........
....s....
s.s...s.s
h...j...h
.........
c..egej.c

12:10:15: ------------------------
12:10:18: Comp: Used 2560 millisecond.
12:10:18: Choice: (0, 5: ESCORT)-> (1,4: NOTHING)
12:10:18: Expectation: [Empt]. (106, 106).
12:10:18: ------------------------
C.JEGEJHC
.........
..H......
S.S..aS.S
A........
....s....
s.s...s.s
h...j...h
.........
c..egej.c

12:10:18: ------------------------
12:10:18: Choice: (0,5: ESCORT)->(1,4: NOTHING) by Top player is a valid move.
12:10:18: ------------------------
C.JEG.JHC
....E....
..H......
S.S..aS.S
A........
....s....
s.s...s.s
h...j...h
.........
c..egej.c

12:10:18: ------------------------
12:10:23: Choice: (9,0: CHARIOT)->(9,0: CHARIOT) by Bot player is an invalid move.
12:10:23: ------------------------
C.JEG.JHC
....E....
..H......
S.S..aS.S
A........
....s....
s.s...s.s
h...j...h
.........
c..egej.c

12:10:23: ------------------------
12:10:26: Choice: (9,8: CHARIOT)->(9,7: NOTHING) by Bot player is a valid move.
12:10:26: ------------------------
C.JEG.JHC
....E....
..H......
S.S..aS.S
A........
....s....
s.s...s.s
h...j...h
.........
c..egejc.

12:10:26: ------------------------
12:10:29: Comp: Used 3398 millisecond.
12:10:29: Choice: (0, 0: CHARIOT)-> (2,0: NOTHING)
12:10:29: Expectation: [Empt]. (106, 107).
12:10:29: ------------------------
C.JEG.JHC
....E....
..H......
S.S..aS.S
A........
....s....
s.s...s.s
h...j...h
.........
c..egejc.

12:10:29: ------------------------
12:10:29: Choice: (0,0: CHARIOT)->(2,0: NOTHING) by Top player is a valid move.
12:10:29: ------------------------
..JEG.JHC
....E....
C.H......
S.S..aS.S
A........
....s....
s.s...s.s
h...j...h
.........
c..egejc.

12:10:29: ------------------------
12:10:33: Choice: (6,8: SOLDIER)->(5,8: NOTHING) by Bot player is a valid move.
12:10:33: ------------------------
..JEG.JHC
....E....
C.H......
S.S..aS.S
A........
....s...s
s.s...s..
h...j...h
.........
c..egejc.

12:10:33: ------------------------
12:10:37: Comp: Used 3327 millisecond.
12:10:37: Choice: (2, 0: CHARIOT)-> (0,0: NOTHING)
12:10:37: Expectation: [Empt]. (106, 107).
12:10:37: ------------------------
..JEG.JHC
....E....
C.H......
S.S..aS.S
A........
....s...s
s.s...s..
h...j...h
.........
c..egejc.

12:10:37: ------------------------
12:10:37: Choice: (2,0: CHARIOT)->(0,0: NOTHING) by Top player is a valid move.
12:10:37: ------------------------
C.JEG.JHC
....E....
..H......
S.S..aS.S
A........
....s...s
s.s...s..
h...j...h
.........
c..egejc.

12:10:37: ------------------------
12:10:43: Choice: (6,6: SOLDIER)->(5,6: NOTHING) by Bot player is a valid move.
12:10:43: ------------------------
C.JEG.JHC
....E....
..H......
S.S..aS.S
A........
....s.s.s
s.s......
h...j...h
.........
c..egejc.

12:10:43: ------------------------
12:10:47: Comp: Used 3365 millisecond.
12:10:47: Choice: (3, 2: SOLDIER)-> (4,2: NOTHING)
12:10:47: Expectation: [Empt]. (106, 107).
12:10:47: ------------------------
C.JEG.JHC
....E....
..H......
S.S..aS.S
A........
....s.s.s
s.s......
h...j...h
.........
c..egejc.

12:10:47: ------------------------
12:10:47: Choice: (3,2: SOLDIER)->(4,2: NOTHING) by Top player is a valid move.
12:10:47: ------------------------
C.JEG.JHC
....E....
..H......
S....aS.S
A.S......
....s.s.s
s.s......
h...j...h
.........
c..egejc.

12:10:47: ------------------------
12:10:51: Choice: (9,7: CHARIOT)->(1,7: NOTHING) by Bot player is a valid move.
12:10:51: ------------------------
C.JEG.JHC
....E..c.
..H......
S....aS.S
A.S......
....s.s.s
s.s......
h...j...h
.........
c..egej..

12:10:51: ------------------------
12:10:55: Comp: Used 2839 millisecond.
12:10:55: Choice: (2, 2: HORSE)-> (4,3: NOTHING)
12:10:55: Expectation: [Empt]. (106, 106).
12:10:55: ------------------------
C.JEG.JHC
....E..c.
..H......
S....aS.S
A.S......
....s.s.s
s.s......
h...j...h
.........
c..egej..

12:10:55: ------------------------
12:10:55: Choice: (2,2: HORSE)->(4,3: NOTHING) by Top player is a valid move.
12:10:55: ------------------------
C.JEG.JHC
....E..c.
.........
S....aS.S
A.SH.....
....s.s.s
s.s......
h...j...h
.........
c..egej..

12:10:55: ------------------------
12:10:58: Choice: (3,5: ARTILLERY)->(3,4: NOTHING) by Bot player is a valid move.
12:10:58: ------------------------
C.JEG.JHC
....E..c.
.........
S...a.S.S
A.SH.....
....s.s.s
s.s......
h...j...h
.........
c..egej..

12:10:58: ------------------------
12:11:00: Comp: Used 982 millisecond.
12:11:00: Choice: (1, 4: ESCORT)-> (0,5: NOTHING)
12:11:00: Expectation: [Empt]. (106, 106).
12:11:00: ------------------------
C.JEG.JHC
....E..c.
.........
S...a.S.S
A.SH.....
....s.s.s
s.s......
h...j...h
.........
c..egej..

12:11:00: ------------------------
12:11:00: Choice: (1,4: ESCORT)->(0,5: NOTHING) by Top player is a valid move.
12:11:00: ------------------------
C.JEGEJHC
.......c.
.........
S...a.S.S
A.SH.....
....s.s.s
s.s......
h...j...h
.........
c..egej..

12:11:00: ------------------------
12:11:04: Choice: (1,7: CHARIOT)->(2,7: NOTHING) by Bot player is a valid move.
12:11:04: ------------------------
C.JEGEJHC
.........
.......c.
S...a.S.S
A.SH.....
....s.s.s
s.s......
h...j...h
.........
c..egej..

12:11:04: ------------------------
12:11:07: Comp: Used 2601 millisecond.
12:11:07: Choice: (4, 3: HORSE)-> (5,5: NOTHING)
12:11:07: Expectation: [Empt]. (103, 102).
12:11:07: ------------------------
C.JEGEJHC
.........
.......c.
S...a.S.S
A.SH.....
....s.s.s
s.s......
h...j...h
.........
c..egej..

12:11:07: ------------------------
12:11:07: Choice: (4,3: HORSE)->(5,5: NOTHING) by Top player is a valid move.
12:11:07: ------------------------
C.JEGEJHC
.........
.......c.
S...a.S.S
A.S......
....sHs.s
s.s......
h...j...h
.........
c..egej..

12:11:07: ------------------------
12:11:12: Choice: (3,4: ARTILLERY)->(4,4: NOTHING) by Bot player is a valid move.
12:11:12: ------------------------
C.JEGEJHC
.........
.......c.
S.....S.S
A.S.a....
....sHs.s
s.s......
h...j...h
.........
c..egej..

12:11:12: ------------------------
12:11:15: Comp: Used 2307 millisecond.
12:11:15: Choice: (4, 0: ARTILLERY)-> (4,4: ARTILLERY)
12:11:15: Expectation: [Empt]. (102, 102).
12:11:15: ------------------------
C.JEGEJHC
.........
.......c.
S.....S.S
A.S.a....
....sHs.s
s.s......
h...j...h
.........
c..egej..

12:11:15: ------------------------
12:11:15: Choice: (4,0: ARTILLERY)->(4,4: ARTILLERY) by Top player is a valid move.
12:11:15: ------------------------
C.JEGEJHC
.........
.......c.
S.....S.S
..S.A....
....sHs.s
s.s......
h...j...h
.........
c..egej..

12:11:15: ------------------------
12:11:28: Choice: (3,4: ARTILLERY)->(3,2: NOTHING) by Bot player is a valid move.
12:11:28: ------------------------
C.JEGEJHC
.........
.......c.
S.a...S.S
A.S......
....sHs.s
s.s......
h...j...h
.........
c..egej..

12:11:28: ------------------------
12:11:32: Comp: Used 2754 millisecond.
12:11:32: Choice: (0, 0: CHARIOT)-> (2,0: NOTHING)
12:11:32: Expectation: [Empt]. (102, 101).
12:11:32: ------------------------
C.JEGEJHC
.........
.......c.
S.a...S.S
A.S......
....sHs.s
s.s......
h...j...h
.........
c..egej..

12:11:32: ------------------------
12:11:32: Choice: (0,0: CHARIOT)->(2,0: NOTHING) by Top player is a valid move.
12:11:32: ------------------------
..JEGEJHC
.........
C......c.
S.a...S.S
A.S......
....sHs.s
s.s......
h...j...h
.........
c..egej..

12:11:32: ------------------------
12:11:43: Choice: (2,7: CHARIOT)->(2,0: CHARIOT) by Bot player is a valid move.
12:11:43: ------------------------
..JEGEJHC
.........
c........
S.a...S.S
A.S......
....sHs.s
s.s......
h...j...h
.........
c..egej..

12:11:43: ------------------------
12:11:46: Comp: Used 1714 millisecond.
12:11:46: Choice: (0, 2: JUMBO)-> (2,0: CHARIOT)
12:11:46: Expectation: [Empt]. (97, 96).
12:11:46: ------------------------
..JEGEJHC
.........
c........
S.a...S.S
A.S......
....sHs.s
s.s......
h...j...h
.........
c..egej..

12:11:46: ------------------------
12:11:46: Choice: (0,2: JUMBO)->(2,0: CHARIOT) by Top player is a valid move.
12:11:46: ------------------------
...EGEJHC
.........
J........
S.a...S.S
A.S......
....sHs.s
s.s......
h...j...h
.........
c..egej..

12:11:46: ------------------------
12:11:49: Choice: (3,2: ARTILLERY)->(3,1: NOTHING) by Bot player is a valid move.
12:11:49: ------------------------
...EGEJHC
.........
J........
Sa....S.S
A.S......
....sHs.s
s.s......
h...j...h
.........
c..egej..

12:11:49: ------------------------
12:11:50: Comp: Used 1476 millisecond.
12:11:50: Choice: (0, 3: ESCORT)-> (1,4: NOTHING)
12:11:50: Expectation: [Empt]. (97, 96).
12:11:50: ------------------------
...EGEJHC
.........
J........
Sa....S.S
A.S......
....sHs.s
s.s......
h...j...h
.........
c..egej..

12:11:50: ------------------------
12:11:50: Choice: (0,3: ESCORT)->(1,4: NOTHING) by Top player is a valid move.
12:11:50: ------------------------
....GEJHC
....E....
J........
Sa....S.S
A.S......
....sHs.s
s.s......
h...j...h
.........
c..egej..

12:11:50: ------------------------
12:11:52: Choice: (3,1: ARTILLERY)->(0,1: NOTHING) by Bot player is a valid move.
12:11:52: ------------------------
.a..GEJHC
....E....
J........
S.....S.S
A.S......
....sHs.s
s.s......
h...j...h
.........
c..egej..

12:11:52: ------------------------
12:11:55: Comp: Used 1461 millisecond.
12:11:55: Choice: (1, 4: ESCORT)-> (2,3: NOTHING)
12:11:55: Expectation: [Empt]. (98, 98).
12:11:55: ------------------------
.a..GEJHC
....E....
J........
S.....S.S
A.S......
....sHs.s
s.s......
h...j...h
.........
c..egej..

12:11:55: ------------------------
12:11:55: Choice: (1,4: ESCORT)->(2,3: NOTHING) by Top player is a valid move.
12:11:55: ------------------------
.a..GEJHC
.........
J..E.....
S.....S.S
A.S......
....sHs.s
s.s......
h...j...h
.........
c..egej..

12:11:55: ------------------------
12:11:59: Choice: (7,8: HORSE)->(5,7: NOTHING) by Bot player is a valid move.
12:11:59: ------------------------
.a..GEJHC
.........
J..E.....
S.....S.S
A.S......
....sHshs
s.s......
h...j....
.........
c..egej..

12:11:59: ------------------------
12:12:01: Comp: Used 1562 millisecond.
12:12:01: Choice: (0, 6: JUMBO)-> (2,4: NOTHING)
12:12:01: Expectation: [Empt]. (98, 98).
12:12:01: ------------------------
.a..GEJHC
.........
J..E.....
S.....S.S
A.S......
....sHshs
s.s......
h...j....
.........
c..egej..

12:12:01: ------------------------
12:12:01: Choice: (0,6: JUMBO)->(2,4: NOTHING) by Top player is a valid move.
12:12:01: ------------------------
.a..GE.HC
.........
J..EJ....
S.....S.S
A.S......
....sHshs
s.s......
h...j....
.........
c..egej..

12:12:01: ------------------------
12:12:10: Choice: (0,1: ARTILLERY)->(0,1: ARTILLERY) by Bot player is an invalid move.
12:12:10: ------------------------
.a..GE.HC
.........
J..EJ....
S.....S.S
A.S......
....sHshs
s.s......
h...j....
.........
c..egej..

12:12:10: ------------------------
12:12:16: Choice: (5,4: SOLDIER)->(5,4: SOLDIER) by Bot player is an invalid move.
12:12:16: ------------------------
.a..GE.HC
.........
J..EJ....
S.....S.S
A.S......
....sHshs
s.s......
h...j....
.........
c..egej..

12:12:16: ------------------------
12:12:19: Choice: (6,2: SOLDIER)->(6,2: SOLDIER) by Bot player is an invalid move.
12:12:19: ------------------------
.a..GE.HC
.........
J..EJ....
S.....S.S
A.S......
....sHshs
s.s......
h...j....
.........
c..egej..

12:12:19: ------------------------
12:12:21: Choice: (6,0: SOLDIER)->(5,0: NOTHING) by Bot player is a valid move.
12:12:21: ------------------------
.a..GE.HC
.........
J..EJ....
S.....S.S
A.S......
s...sHshs
..s......
h...j....
.........
c..egej..

12:12:21: ------------------------
12:12:22: Comp: Used 1462 millisecond.
12:12:22: Choice: (4, 0: ARTILLERY)-> (7,0: HORSE)
12:12:22: Expectation: [Empt]. (97, 97).
12:12:22: ------------------------
.a..GE.HC
.........
J..EJ....
S.....S.S
A.S......
s...sHshs
..s......
h...j....
.........
c..egej..

12:12:22: ------------------------
12:12:22: Choice: (4,0: ARTILLERY)->(7,0: HORSE) by Top player is a valid move.
12:12:22: ------------------------
.a..GE.HC
.........
J..EJ....
S.....S.S
..S......
s...sHshs
..s......
A...j....
.........
c..egej..

12:12:22: ------------------------
12:12:28: Choice: (9,0: CHARIOT)->(7,0: ARTILLERY) by Bot player is a valid move.
12:12:28: ------------------------
.a..GE.HC
.........
J..EJ....
S.....S.S
..S......
s...sHshs
..s......
c...j....
.........
...egej..

12:12:28: ------------------------
12:12:30: Comp: Used 1377 millisecond.
12:12:30: Choice: (0, 7: HORSE)-> (1,5: NOTHING)
12:12:30: Expectation: [Empt]. (97, 98).
12:12:30: ------------------------
.a..GE.HC
.........
J..EJ....
S.....S.S
..S......
s...sHshs
..s......
c...j....
.........
...egej..

12:12:30: ------------------------
12:12:30: Choice: (0,7: HORSE)->(1,5: NOTHING) by Top player is a valid move.
12:12:30: ------------------------
.a..GE..C
.....H...
J..EJ....
S.....S.S
..S......
s...sHshs
..s......
c...j....
.........
...egej..

12:12:30: ------------------------
12:12:34: Choice: (5,0: SOLDIER)->(4,0: NOTHING) by Bot player is a valid move.
12:12:34: ------------------------
.a..GE..C
.....H...
J..EJ....
S.....S.S
s.S......
....sHshs
..s......
c...j....
.........
...egej..

12:12:34: ------------------------
12:12:36: Comp: Used 1633 millisecond.
12:12:36: Choice: (3, 8: SOLDIER)-> (4,8: NOTHING)
12:12:36: Expectation: [Empt]. (96, 96).
12:12:36: ------------------------
.a..GE..C
.....H...
J..EJ....
S.....S.S
s.S......
....sHshs
..s......
c...j....
.........
...egej..

12:12:36: ------------------------
12:12:36: Choice: (3,8: SOLDIER)->(4,8: NOTHING) by Top player is a valid move.
12:12:36: ------------------------
.a..GE..C
.....H...
J..EJ....
S.....S..
s.S.....S
....sHshs
..s......
c...j....
.........
...egej..

12:12:36: ------------------------
12:12:48: Choice: (5,6: SOLDIER)->(4,6: NOTHING) by Bot player is a valid move.
12:12:48: ------------------------
.a..GE..C
.....H...
J..EJ....
S.....S..
s.S...s.S
....sH.hs
..s......
c...j....
.........
...egej..

12:12:48: ------------------------
12:12:50: Comp: Used 2228 millisecond.
12:12:50: Choice: (3, 0: SOLDIER)-> (4,0: SOLDIER)
12:12:50: Expectation: [Empt]. (97, 96).
12:12:50: ------------------------
.a..GE..C
.....H...
J..EJ....
S.....S..
s.S...s.S
....sH.hs
..s......
c...j....
.........
...egej..

12:12:50: ------------------------
12:12:50: Choice: (3,0: SOLDIER)->(4,0: SOLDIER) by Top player is a valid move.
12:12:50: ------------------------
.a..GE..C
.....H...
J..EJ....
......S..
S.S...s.S
....sH.hs
..s......
c...j....
.........
...egej..

12:12:50: ------------------------
12:12:54: Choice: (4,6: SOLDIER)->(3,6: SOLDIER) by Bot player is a valid move.
12:12:54: ------------------------
.a..GE..C
.....H...
J..EJ....
......s..
S.S.....S
....sH.hs
..s......
c...j....
.........
...egej..

12:12:54: ------------------------
12:12:56: Comp: Used 2186 millisecond.
12:12:56: Choice: (2, 3: ESCORT)-> (1,4: NOTHING)
12:12:56: Expectation: [Empt]. (96, 96).
12:12:56: ------------------------
.a..GE..C
.....H...
J..EJ....
......s..
S.S.....S
....sH.hs
..s......
c...j....
.........
...egej..

12:12:56: ------------------------
12:12:56: Choice: (2,3: ESCORT)->(1,4: NOTHING) by Top player is a valid move.
12:12:56: ------------------------
.a..GE..C
....EH...
J...J....
......s..
S.S.....S
....sH.hs
..s......
c...j....
.........
...egej..

12:12:56: ------------------------
12:13:01: Choice: (3,6: SOLDIER)->(2,6: NOTHING) by Bot player is a valid move.
12:13:01: ------------------------
.a..GE..C
....EH...
J...J.s..
.........
S.S.....S
....sH.hs
..s......
c...j....
.........
...egej..

12:13:01: ------------------------
12:13:04: Comp: Used 2367 millisecond.
12:13:04: Choice: (5, 5: HORSE)-> (6,7: NOTHING)
12:13:04: Expectation: [Empt]. (96, 96).
12:13:04: ------------------------
.a..GE..C
....EH...
J...J.s..
.........
S.S.....S
....sH.hs
..s......
c...j....
.........
...egej..

12:13:04: ------------------------
12:13:04: Choice: (5,5: HORSE)->(6,7: NOTHING) by Top player is a valid move.
12:13:04: ------------------------
.a..GE..C
....EH...
J...J.s..
.........
S.S.....S
....s..hs
..s....H.
c...j....
.........
...egej..

12:13:04: ------------------------
12:13:08: Choice: (5,7: HORSE)->(3,6: NOTHING) by Bot player is a valid move.
12:13:08: ------------------------
.a..GE..C
....EH...
J...J.s..
......h..
S.S.....S
....s...s
..s....H.
c...j....
.........
...egej..

12:13:08: ------------------------
12:13:10: Comp: Used 1957 millisecond.
12:13:10: Choice: (6, 7: HORSE)-> (7,5: NOTHING)
12:13:10: Expectation: [Empt]. (96, 92).
12:13:10: ------------------------
.a..GE..C
....EH...
J...J.s..
......h..
S.S.....S
....s...s
..s....H.
c...j....
.........
...egej..

12:13:10: ------------------------
12:13:10: Choice: (6,7: HORSE)->(7,5: NOTHING) by Top player is a valid move.
12:13:10: ------------------------
.a..GE..C
....EH...
J...J.s..
......h..
S.S.....S
....s...s
..s......
c...jH...
.........
...egej..

12:13:10: ------------------------
12:13:15: Choice: (9,4: GENERAL)->(8,4: NOTHING) by Bot player is a valid move.
12:13:15: ------------------------
.a..GE..C
....EH...
J...J.s..
......h..
S.S.....S
....s...s
..s......
c...jH...
....g....
...e.ej..

12:13:15: ------------------------
12:13:18: Comp: Used 2081 millisecond.
12:13:18: Choice: (1, 5: HORSE)-> (3,6: HORSE)
12:13:18: Expectation: [Empt]. (93, 90).
12:13:18: ------------------------
.a..GE..C
....EH...
J...J.s..
......h..
S.S.....S
....s...s
..s......
c...jH...
....g....
...e.ej..

12:13:18: ------------------------
12:13:18: Choice: (1,5: HORSE)->(3,6: HORSE) by Top player is a valid move.
12:13:18: ------------------------
.a..GE..C
....E....
J...J.s..
......H..
S.S.....S
....s...s
..s......
c...jH...
....g....
...e.ej..

12:13:18: ------------------------
12:13:26: Choice: (2,6: SOLDIER)->(2,5: NOTHING) by Bot player is a valid move.
12:13:26: ------------------------
.a..GE..C
....E....
J...Js...
......H..
S.S.....S
....s...s
..s......
c...jH...
....g....
...e.ej..

12:13:26: ------------------------
12:13:28: Comp: Used 1825 millisecond.
12:13:28: Choice: (4, 8: SOLDIER)-> (5,8: SOLDIER)
12:13:28: Expectation: [Empt]. (94, 90).
12:13:28: ------------------------
.a..GE..C
....E....
J...Js...
......H..
S.S.....S
....s...s
..s......
c...jH...
....g....
...e.ej..

12:13:28: ------------------------
12:13:28: Choice: (4,8: SOLDIER)->(5,8: SOLDIER) by Top player is a valid move.
12:13:28: ------------------------
.a..GE..C
....E....
J...Js...
......H..
S.S......
....s...S
..s......
c...jH...
....g....
...e.ej..

12:13:28: ------------------------
12:13:30: Choice: (2,5: SOLDIER)->(2,4: JUMBO) by Bot player is a valid move.
12:13:30: ------------------------
.a..GE..C
....E....
J...s....
......H..
S.S......
....s...S
..s......
c...jH...
....g....
...e.ej..

12:13:30: ------------------------
12:13:33: Comp: Used 2260 millisecond.
12:13:33: Choice: (3, 6: HORSE)-> (2,4: SOLDIER)
12:13:33: Expectation: [Empt]. (91, 88).
12:13:33: ------------------------
.a..GE..C
....E....
J...s....
......H..
S.S......
....s...S
..s......
c...jH...
....g....
...e.ej..

12:13:33: ------------------------
12:13:33: Choice: (3,6: HORSE)->(2,4: SOLDIER) by Top player is a valid move.
12:13:33: ------------------------
.a..GE..C
....E....
J...H....
.........
S.S......
....s...S
..s......
c...jH...
....g....
...e.ej..

12:13:33: ------------------------
12:13:47: Choice: (7,4: JUMBO)->(9,2: NOTHING) by Bot player is a valid move.
12:13:47: ------------------------
.a..GE..C
....E....
J...H....
.........
S.S......
....s...S
..s......
c....H...
....g....
..je.ej..

12:13:47: ------------------------
12:13:49: Comp: Used 1770 millisecond.
12:13:49: Choice: (7, 5: HORSE)-> (9,6: JUMBO)
12:13:49: Expectation: [Empt]. (93, 89).
12:13:49: ------------------------
.a..GE..C
....E....
J...H....
.........
S.S......
....s...S
..s......
c....H...
....g....
..je.ej..

12:13:49: ------------------------
12:13:49: Choice: (7,5: HORSE)->(9,6: JUMBO) by Top player is a valid move.
12:13:49: ------------------------
.a..GE..C
....E....
J...H....
.........
S.S......
....s...S
..s......
c........
....g....
..je.eH..

12:13:49: ------------------------
12:13:56: Choice: (8,4: GENERAL)->(8,5: NOTHING) by Bot player is a valid move.
12:13:56: ------------------------
.a..GE..C
....E....
J...H....
.........
S.S......
....s...S
..s......
c...jH...
.....g...
...e.ej..

12:13:56: ------------------------
12:13:58: Comp: Used 1449 millisecond.
12:13:58: Choice: (7, 5: HORSE)-> (8,7: NOTHING)
12:13:58: Expectation: [Empt]. (94, 90).
12:13:58: ------------------------
.a..GE..C
....E....
J...H....
.........
S.S......
....s...S
..s......
c...jH...
.....g...
...e.ej..

12:13:58: ------------------------
12:13:58: Choice: (7,5: HORSE)->(8,7: NOTHING) by Top player is a valid move.
12:13:58: ------------------------
.a..GE..C
....E....
J...H....
.........
S.S......
....s...S
..s......
c...j....
.....g.H.
...e.ej..

12:13:58: ------------------------
12:14:01: Choice: (8,5: GENERAL)->(8,5: GENERAL) by Bot player is an invalid move.
12:14:01: ------------------------
.a..GE..C
....E....
J...H....
.........
S.S......
....s...S
..s......
c...j....
.....g.H.
...e.ej..

12:14:01: ------------------------
12:14:06: Choice: (7,4: JUMBO)->(9,2: NOTHING) by Bot player is a valid move.
12:14:06: ------------------------
.a..GE..C
....E....
J...H....
.........
S.S......
....s...S
..s......
c........
.....g.H.
..je.ej..

12:14:06: ------------------------
12:14:08: Comp: Used 1568 millisecond.
12:14:08: Choice: (2, 4: HORSE)-> (4,3: NOTHING)
12:14:08: Expectation: [Empt]. (94, 90).
12:14:08: ------------------------
.a..GE..C
....E....
J...H....
.........
S.S......
....s...S
..s......
c........
.....g.H.
..je.ej..

12:14:08: ------------------------
12:14:08: Choice: (2,4: HORSE)->(4,3: NOTHING) by Top player is a valid move.
12:14:08: ------------------------
.a..GE..C
....E....
J........
.........
S.SH.....
....s...S
..s......
c........
.....g.H.
..je.ej..

12:14:08: ------------------------
12:14:12: Choice: (7,0: CHARIOT)->(7,7: NOTHING) by Bot player is a valid move.
12:14:12: ------------------------
.a..GE..C
....E....
J........
.........
S.SH.....
....s...S
..s......
.......c.
.....g.H.
..je.ej..

12:14:12: ------------------------
12:14:15: Comp: Used 1624 millisecond.
12:14:15: Choice: (8, 7: HORSE)-> (9,5: ESCORT)
12:14:15: Expectation: [Empt]. (90, 87).
12:14:15: ------------------------
.a..GE..C
....E....
J........
.........
S.SH.....
....s...S
..s......
.......c.
.....g.H.
..je.ej..

12:14:15: ------------------------
12:14:15: Choice: (8,7: HORSE)->(9,5: ESCORT) by Top player is a valid move.
12:14:15: ------------------------
.a..GE..C
....E....
J........
.........
S.SH.....
....s...S
..s......
.......c.
.....g...
..je.Hj..

12:14:15: ------------------------
12:14:19: Choice: (8,5: GENERAL)->(9,5: HORSE) by Bot player is a valid move.
12:14:19: ------------------------
.a..GE..C
....E....
J........
.........
S.SH.....
....s...S
..s......
.......c.
.........
..je.gj..

12:14:19: ------------------------
12:14:21: Comp: Used 1820 millisecond.
12:14:21: Choice: (4, 3: HORSE)-> (3,5: NOTHING)
12:14:21: Expectation: [Empt]. (90, 87).
12:14:21: ------------------------
.a..GE..C
....E....
J........
.........
S.SH.....
....s...S
..s......
.......c.
.........
..je.gj..

12:14:21: ------------------------
12:14:21: Choice: (4,3: HORSE)->(3,5: NOTHING) by Top player is a valid move.
12:14:21: ------------------------
.a..GE..C
....E....
J........
.....H...
S.S......
....s...S
..s......
.......c.
.........
..je.gj..

12:14:21: ------------------------
12:14:26: Choice: (7,7: CHARIOT)->(7,5: NOTHING) by Bot player is a valid move.
12:14:26: ------------------------
.a..GE..C
....E....
J........
.....H...
S.S......
....s...S
..s......
.....c...
.........
..je.gj..

12:14:26: ------------------------
12:14:28: Comp: Used 1792 millisecond.
12:14:28: Choice: (3, 5: HORSE)-> (4,3: NOTHING)
12:14:28: Expectation: [Empt]. (90, 87).
12:14:28: ------------------------
.a..GE..C
....E....
J........
.....H...
S.S......
....s...S
..s......
.....c...
.........
..je.gj..

12:14:28: ------------------------
12:14:28: Choice: (3,5: HORSE)->(4,3: NOTHING) by Top player is a valid move.
12:14:28: ------------------------
.a..GE..C
....E....
J........
.........
S.SH.....
....s...S
..s......
.....c...
.........
..je.gj..

12:14:28: ------------------------
12:14:33: Choice: (7,5: CHARIOT)->(4,5: NOTHING) by Bot player is a valid move.
12:14:33: ------------------------
.a..GE..C
....E....
J........
.........
S.SH.c...
....s...S
..s......
.........
.........
..je.gj..

12:14:33: ------------------------
12:14:35: Comp: Used 1461 millisecond.
12:14:35: Choice: (4, 3: HORSE)-> (6,2: SOLDIER)
12:14:35: Expectation: [Empt]. (90, 87).
12:14:35: ------------------------
.a..GE..C
....E....
J........
.........
S.SH.c...
....s...S
..s......
.........
.........
..je.gj..

12:14:35: ------------------------
12:14:35: Choice: (4,3: HORSE)->(6,2: SOLDIER) by Top player is a valid move.
12:14:35: ------------------------
.a..GE..C
....E....
J........
.........
S.S..c...
....s...S
..H......
.........
.........
..je.gj..

12:14:35: ------------------------
12:14:39: Choice: (4,5: CHARIOT)->(4,2: SOLDIER) by Bot player is a valid move.
12:14:39: ------------------------
.a..GE..C
....E....
J........
.........
S.c......
....s...S
..H......
.........
.........
..je.gj..

12:14:39: ------------------------
12:14:41: Comp: Used 1371 millisecond.
12:14:41: Choice: (2, 0: JUMBO)-> (4,2: CHARIOT)
12:14:41: Expectation: [Empt]. (89, 82).
12:14:41: ------------------------
.a..GE..C
....E....
J........
.........
S.c......
....s...S
..H......
.........
.........
..je.gj..

12:14:41: ------------------------
12:14:41: Choice: (2,0: JUMBO)->(4,2: CHARIOT) by Top player is a valid move.
12:14:41: ------------------------
.a..GE..C
....E....
.........
.........
S.J......
....s...S
..H......
.........
.........
..je.gj..

12:14:41: ------------------------
12:14:50: Choice: (0,1: ARTILLERY)->(3,1: NOTHING) by Bot player is a valid move.
12:14:50: ------------------------
....GE..C
....E....
J........
.a.......
S.S..c...
....s...S
..H......
.........
.........
..je.gj..

12:14:50: ------------------------
12:14:53: Comp: Used 1922 millisecond.
12:14:53: Choice: (0, 8: CHARIOT)-> (3,8: NOTHING)
12:14:53: Expectation: [Empt]. (90, 86).
12:14:53: ------------------------
....GE..C
....E....
J........
.a.......
S.S..c...
....s...S
..H......
.........
.........
..je.gj..

12:14:53: ------------------------
12:14:53: Choice: (0,8: CHARIOT)->(3,8: NOTHING) by Top player is a valid move.
12:14:53: ------------------------
....GE...
....E....
J........
.a......C
S.S..c...
....s...S
..H......
.........
.........
..je.gj..

12:14:53: ------------------------
12:15:00: Choice: (3,1: ARTILLERY)->(1,1: NOTHING) by Bot player is a valid move.
12:15:00: ------------------------
....GE...
.a..E....
J........
........C
S.S..c...
....s...S
..H......
.........
.........
..je.gj..

12:15:00: ------------------------
12:15:03: Comp: Used 1755 millisecond.
12:15:03: Choice: (3, 8: CHARIOT)-> (3,6: NOTHING)
12:15:03: Expectation: [Empt]. (90, 85).
12:15:03: ------------------------
....GE...
.a..E....
J........
........C
S.S..c...
....s...S
..H......
.........
.........
..je.gj..

12:15:03: ------------------------
12:15:03: Choice: (3,8: CHARIOT)->(3,6: NOTHING) by Top player is a valid move.
12:15:03: ------------------------
....GE...
.a..E....
J........
......C..
S.S..c...
....s...S
..H......
.........
.........
..je.gj..

12:15:03: ------------------------
12:15:07: Choice: (9,2: JUMBO)->(7,4: NOTHING) by Bot player is a valid move.
12:15:07: ------------------------
....GE...
.a..E....
J........
......C..
S.S..c...
....s...S
..H......
....j....
.........
...e.gj..

12:15:07: ------------------------
12:15:10: Comp: Used 2180 millisecond.
12:15:10: Choice: (6, 2: HORSE)-> (8,1: NOTHING)
12:15:10: Expectation: [Empt]. (90, 85).
12:15:10: ------------------------
....GE...
.a..E....
J........
......C..
S.S..c...
....s...S
..H......
....j....
.........
...e.gj..

12:15:10: ------------------------
12:15:10: Choice: (6,2: HORSE)->(8,1: NOTHING) by Top player is a valid move.
12:15:10: ------------------------
....GE...
.a..E....
J........
......C..
S.S..c...
....s...S
.........
....j....
.H.......
...e.gj..

12:15:10: ------------------------
12:15:14: Choice: (9,5: GENERAL)->(9,4: NOTHING) by Bot player is a valid move.
12:15:14: ------------------------
....GE...
.a..E....
J........
......C..
S.S..c...
....s...S
.........
....j....
.H.......
...eg.j..

12:15:14: ------------------------
12:15:16: Comp: Used 2023 millisecond.
12:15:16: Choice: (3, 6: CHARIOT)-> (0,6: NOTHING)
12:15:16: Expectation: [Empt]. (90, 85).
12:15:16: ------------------------
....GE...
.a..E....
J........
......C..
S.S..c...
....s...S
.........
....j....
.H.......
...eg.j..

12:15:16: ------------------------
12:15:16: Choice: (3,6: CHARIOT)->(0,6: NOTHING) by Top player is a valid move.
12:15:16: ------------------------
....GEC..
.a..E....
J........
.........
S.S..c...
....s...S
.........
....j....
.H.......
...eg.j..

12:15:16: ------------------------
12:15:20: Choice: (5,4: SOLDIER)->(4,4: NOTHING) by Bot player is a valid move.
12:15:20: ------------------------
....GEC..
.a..E....
J........
.........
S.S.sc...
........S
.........
....j....
.H.......
...eg.j..

12:15:20: ------------------------
12:15:22: Comp: Used 1542 millisecond.
12:15:22: Choice: (0, 6: CHARIOT)-> (2,6: NOTHING)
12:15:22: Expectation: [Empt]. (90, 85).
12:15:22: ------------------------
....GEC..
.a..E....
J........
.........
S.S.sc...
........S
.........
....j....
.H.......
...eg.j..

12:15:22: ------------------------
12:15:22: Choice: (0,6: CHARIOT)->(2,6: NOTHING) by Top player is a valid move.
12:15:22: ------------------------
....GE...
.a..E....
J.....C..
.........
S.S.sc...
........S
.........
....j....
.H.......
...eg.j..

12:15:22: ------------------------
12:15:25: Choice: (4,4: SOLDIER)->(3,4: NOTHING) by Bot player is a valid move.
12:15:25: ------------------------
....GE...
.a..E....
J.....C..
....s....
S.S..c...
........S
.........
....j....
.H.......
...eg.j..

12:15:25: ------------------------
12:15:27: Comp: Used 2037 millisecond.
12:15:27: Choice: (8, 1: HORSE)-> (7,3: NOTHING)
12:15:27: Expectation: [Empt]. (90, 85).
12:15:27: ------------------------
....GE...
.a..E....
J.....C..
....s....
S.S..c...
........S
.........
....j....
.H.......
...eg.j..

12:15:27: ------------------------
12:15:27: Choice: (8,1: HORSE)->(7,3: NOTHING) by Top player is a valid move.
12:15:27: ------------------------
....GE...
.a..E....
J.....C..
....s....
S.S..c...
........S
.........
...Hj....
.........
...eg.j..

12:15:27: ------------------------
12:15:33: Choice: (9,4: GENERAL)->(9,5: NOTHING) by Bot player is a valid move.
12:15:33: ------------------------
....GE...
.a..E....
J.....C..
....s....
S.S..c...
........S
.........
...Hj....
.........
...e.gj..

12:15:33: ------------------------
12:15:35: Comp: Used 2091 millisecond.
12:15:35: Choice: (7, 3: HORSE)-> (8,1: NOTHING)
12:15:35: Expectation: [Empt]. (90, 85).
12:15:35: ------------------------
....GE...
.a..E....
J.....C..
....s....
S.S..c...
........S
.........
...Hj....
.........
...e.gj..

12:15:35: ------------------------
12:15:35: Choice: (7,3: HORSE)->(8,1: NOTHING) by Top player is a valid move.
12:15:35: ------------------------
....GE...
.a..E....
J.....C..
....s....
S.S..c...
........S
.........
....j....
.H.......
...e.gj..

12:15:35: ------------------------
12:15:38: Choice: (9,3: ESCORT)->(8,4: NOTHING) by Bot player is a valid move.
12:15:38: ------------------------
....GE...
.a..E....
J.....C..
....s....
S.S..c...
........S
.........
....j....
.H..e....
.....gj..

12:15:38: ------------------------
12:15:40: Comp: Used 2311 millisecond.
12:15:40: Choice: (2, 6: CHARIOT)-> (8,6: NOTHING)
12:15:40: Expectation: [Empt]. (90, 85).
12:15:40: ------------------------
....GE...
.a..E....
J.....C..
....s....
S.S..c...
........S
.........
....j....
.H..e....
.....gj..

12:15:40: ------------------------
12:15:40: Choice: (2,6: CHARIOT)->(8,6: NOTHING) by Top player is a valid move.
12:15:40: ------------------------
....GE...
.a..E....
J........
....s....
S.S..c...
........S
.........
....j....
.H..e.C..
.....gj..

12:15:40: ------------------------
12:15:44: Choice: (9,5: GENERAL)->(9,4: NOTHING) by Bot player is a valid move.
12:15:44: ------------------------
....GE...
.a..E....
J........
....s....
S.S..c...
........S
.........
....j....
.H..e.C..
....g.j..

12:15:44: ------------------------
12:15:47: Comp: Used 2099 millisecond.
12:15:47: Choice: (1, 4: ESCORT)-> (0,3: NOTHING)
12:15:47: Expectation: [Empt]. (90, 86).
12:15:47: ------------------------
....GE...
.a..E....
J........
....s....
S.S..c...
........S
.........
....j....
.H..e.C..
....g.j..

12:15:47: ------------------------
12:15:47: Choice: (1,4: ESCORT)->(0,3: NOTHING) by Top player is a valid move.
12:15:47: ------------------------
...EGE...
.a.......
J........
....s....
S.S..c...
........S
.........
....j....
.H..e.C..
....g.j..

12:15:47: ------------------------
12:15:51: Choice: (3,4: SOLDIER)->(2,4: NOTHING) by Bot player is a valid move.
12:15:51: ------------------------
...EGE...
.a.......
J...s....
.........
S.S..c...
........S
.........
....j....
.H..e.C..
....g.j..

12:15:51: ------------------------
12:15:53: Comp: Used 1978 millisecond.
12:15:53: Choice: (4, 0: SOLDIER)-> (5,0: NOTHING)
12:15:53: Expectation: [Empt]. (90, 86).
12:15:53: ------------------------
...EGE...
.a.......
J...s....
.........
S.S..c...
........S
.........
....j....
.H..e.C..
....g.j..

12:15:53: ------------------------
12:15:53: Choice: (4,0: SOLDIER)->(5,0: NOTHING) by Top player is a valid move.
12:15:53: ------------------------
...EGE...
.a.......
J...s....
.........
..S..c...
S.......S
.........
....j....
.H..e.C..
....g.j..

12:15:53: ------------------------
12:15:59: Choice: (4,5: CHARIOT)->(1,1: ARTILLERY) by Bot player is an invalid move.
12:15:59: ------------------------
...EGE...
.a.......
J...s....
.........
..S..c...
S.......S
.........
....j....
.H..e.C..
....g.j..

12:15:59: ------------------------
12:16:00: Choice: (1,1: ARTILLERY)->(3,1: NOTHING) by Bot player is a valid move.
12:16:00: ------------------------
...EGE...
.........
J...s....
.a.......
..S..c...
S.......S
.........
....j....
.H..e.C..
....g.j..

12:16:00: ------------------------
12:16:03: Comp: Used 2308 millisecond.
12:16:03: Choice: (8, 6: CHARIOT)-> (3,6: NOTHING)
12:16:03: Expectation: [Empt]. (90, 86).
12:16:03: ------------------------
...EGE...
.........
J...s....
.a.......
..S..c...
S.......S
.........
....j....
.H..e.C..
....g.j..

12:16:03: ------------------------
12:16:03: Choice: (8,6: CHARIOT)->(3,6: NOTHING) by Top player is a valid move.
12:16:03: ------------------------
...EGE...
.........
J...s....
.a....C..
..S..c...
S.......S
.........
....j....
.H..e....
....g.j..

12:16:03: ------------------------
12:16:17: Choice: (3,1: ARTILLERY)->(2,1: NOTHING) by Bot player is a valid move.
12:16:17: ------------------------
...EGE...
.........
Ja..s....
......C..
..S..c...
S.......S
.........
....j....
.H..e....
....g.j..

12:16:17: ------------------------
12:16:20: Comp: Used 2134 millisecond.
12:16:20: Choice: (3, 6: CHARIOT)-> (1,6: NOTHING)
12:16:20: Expectation: [Empt]. (90, 86).
12:16:20: ------------------------
...EGE...
.........
Ja..s....
......C..
..S..c...
S.......S
.........
....j....
.H..e....
....g.j..

12:16:20: ------------------------
12:16:20: Choice: (3,6: CHARIOT)->(1,6: NOTHING) by Top player is a valid move.
12:16:20: ------------------------
...EGE...
......C..
Ja..s....
.........
..S..c...
S.......S
.........
....j....
.H..e....
....g.j..

12:16:20: ------------------------
12:16:22: Choice: (4,5: CHARIOT)->(4,4: NOTHING) by Bot player is a valid move.
12:16:22: ------------------------
...EGE...
......C..
Ja..s....
.........
..S.c....
S.......S
.........
....j....
.H..e....
....g.j..

12:16:22: ------------------------
12:16:24: Comp: Used 1811 millisecond.
12:16:24: Choice: (1, 6: CHARIOT)-> (8,6: NOTHING)
12:16:24: Expectation: [Empt]. (90, 86).
12:16:24: ------------------------
...EGE...
......C..
Ja..s....
.........
..S.c....
S.......S
.........
....j....
.H..e....
....g.j..

12:16:24: ------------------------
12:16:24: Choice: (1,6: CHARIOT)->(8,6: NOTHING) by Top player is a valid move.
12:16:24: ------------------------
...EGE...
.........
Ja..s....
.........
..S.c....
S.......S
.........
....j....
.H..e.C..
....g.j..

12:16:24: ------------------------
12:16:30: Choice: (2,1: ARTILLERY)->(3,1: NOTHING) by Bot player is a valid move.
12:16:30: ------------------------
...EGE...
.........
J...s....
.a.......
..S.c....
S.......S
.........
....j....
.H..e.C..
....g.j..

12:16:30: ------------------------
12:16:32: Comp: Used 1910 millisecond.
12:16:32: Choice: (0, 3: ESCORT)-> (1,4: NOTHING)
12:16:32: Expectation: [Empt]. (90, 87).
12:16:32: ------------------------
...EGE...
.........
J...s....
.a.......
..S.c....
S.......S
.........
....j....
.H..e.C..
....g.j..

12:16:32: ------------------------
12:16:32: Choice: (0,3: ESCORT)->(1,4: NOTHING) by Top player is a valid move.
12:16:32: ------------------------
....GE...
....E....
J...s....
.a.......
..S.c....
S.......S
.........
....j....
.H..e.C..
....g.j..

12:16:32: ------------------------
12:16:40: Choice: (3,1: ARTILLERY)->(3,1: ARTILLERY) by Bot player is an invalid move.
12:16:40: ------------------------
....GE...
....E....
J...s....
.a.......
..S.c....
S.......S
.........
....j....
.H..e.C..
....g.j..

12:16:40: ------------------------
12:16:46: Choice: (2,4: SOLDIER)->(1,4: ESCORT) by Bot player is a valid move.
12:16:46: ------------------------
....GE...
....s....
J........
.a.......
..S.c....
S.......S
.........
....j....
.H..e.C..
....g.j..

12:16:46: ------------------------
12:16:47: Comp: Used 831 millisecond.
12:16:47: Choice: (0, 5: ESCORT)-> (1,4: SOLDIER)
12:16:47: Expectation: [Empt]. (87, 86).
12:16:47: ------------------------
....GE...
....s....
J........
.a.......
..S.c....
S.......S
.........
....j....
.H..e.C..
....g.j..

12:16:47: ------------------------
12:16:47: Choice: (0,5: ESCORT)->(1,4: SOLDIER) by Top player is a valid move.
12:16:47: ------------------------
....G....
....E....
J........
.a.......
..S.c....
S.......S
.........
....j....
.H..e.C..
....g.j..

12:16:47: ------------------------
12:16:49: Choice: (3,1: ARTILLERY)->(3,4: NOTHING) by Bot player is a valid move.
12:16:49: ------------------------
....G....
....E....
J........
....a....
..S.c....
S.......S
.........
....j....
.H..e.C..
....g.j..

12:16:49: ------------------------
12:16:51: Comp: Used 768 millisecond.
12:16:51: Choice: (1, 4: ESCORT)-> (0,3: NOTHING)
12:16:51: Expectation: [Empt]. (87, 84).
12:16:51: ------------------------
....G....
....E....
J........
....a....
..S.c....
S.......S
.........
....j....
.H..e.C..
....g.j..

12:16:51: ------------------------
12:16:51: Choice: (1,4: ESCORT)->(0,3: NOTHING) by Top player is a valid move.
12:16:51: ------------------------
...EG....
.........
J........
....a....
..S.c....
S.......S
.........
....j....
.H..e.C..
....g.j..

12:16:51: ------------------------
12:16:58: Choice: (3,4: ARTILLERY)->(3,2: NOTHING) by Bot player is a valid move.
12:16:58: ------------------------
...EG....
.........
J........
..a......
..S.c....
S.......S
.........
....j....
.H..e.C..
....g.j..

12:16:58: ------------------------
12:16:59: Comp: Used 519 millisecond.
12:16:59: Choice: (0, 3: ESCORT)-> (1,4: NOTHING)
12:16:59: Expectation: [Empt]. (87, 84).
12:16:59: ------------------------
...EG....
.........
J........
..a......
..S.c....
S.......S
.........
....j....
.H..e.C..
....g.j..

12:16:59: ------------------------
12:16:59: Choice: (0,3: ESCORT)->(1,4: NOTHING) by Top player is a valid move.
12:16:59: ------------------------
....G....
....E....
J........
..a......
..S.c....
S.......S
.........
....j....
.H..e.C..
....g.j..

12:16:59: ------------------------
12:17:05: Choice: (7,4: JUMBO)->(7,4: JUMBO) by Bot player is an invalid move.
12:17:05: ------------------------
....G....
....E....
J........
..a......
..S.c....
S.......S
.........
....j....
.H..e.C..
....g.j..

12:17:05: ------------------------
12:17:10: Choice: (9,4: GENERAL)->(9,4: GENERAL) by Bot player is an invalid move.
12:17:10: ------------------------
....G....
....E....
J........
..a......
..S.c....
S.......S
.........
....j....
.H..e.C..
....g.j..

12:17:10: ------------------------
